{
	"template" : "activation-smp.html",
	"language" : "sv",
	"output" : "activation-smp-sv.html",
	"languagecode" : "sv",
	"subject" : "Du har nu genomf&ouml;rt din f&ouml;rsta American Express<sup class=\"supx1\">&reg;</sup>-transaktion",
	"browserview" : {
		"text" : "Kan du inte se inneh&aring;llet i detta mail [[link]].",
		"links" : [
			{
				"linktext" : "klicka h&auml;r",
				"link" : "http://ebm.email.americanexpress.com/c/tag/%%t%%/doc.html?t_sparams=%%t_sparams%%",
				"colour" : "ffffff"
			}
		]
	},
	"amexlink" : "https://merchant-channel.americanexpress.com/merchant/sv_SE/home",
	"amexalt" : "American Express&reg;",
	"merchant" : "Anslutningsnummer",
	"merchantnumber" : "&lt;XXXXXX&gt;",
	"modules" : [
		{
			"type" : "title",
			"text" : "Du har nu genomf&ouml;rt din f&ouml;rsta American <font style=\"white-space:nowrap;\">Express<sup class=\"supx1\">&reg;</sup></font>-transaktion"
		},
		{
			"type" : "hero",
			"alt" : "Du har nu genomf&ouml;rt din f&ouml;rsta American Express&reg;-transaktion",
			"img" : "img/sv/yes5.png"
		},
		{
			"type" : "intro",
			"text" : "Du har nu gjort din f&ouml;rsta aff&auml;r med en av v&aring;ra Kortmedlemmar. Din serviceavgift &auml;r bara 1,9%. Vi tar inte ut n&aring;gra andra avgifter per transaktion, s&aring; serviceavgiften &auml;r det enda du betalar f&ouml;r att acceptera American&nbsp;Express.",
			"bottommargin" : "yes"
		},
		{
			"type" : "submodules",
			"items" : [
				{
					"type" : "gettingpaid",
					"img" : "img/sv/currency.png",
					"alt" : "Betalningar",
					"header" : "Betalningar",
					"copy" : "Effektiv hantering av kassafl&ouml;det &auml;r viktigt. Vi har effektiva processer f&ouml;r att du ska f&aring; din betalning snabbt och enkelt. I v&aring;ra Allm&auml;nna villkor f&ouml;r att acceptera American Express-Kort hittar du mer information om dina betalningar.",
					"links" : []
				},
				{
					"type" : "account",
					"alt" : "Hantera ditt Aff&auml;rskonto online",
					"header" : "Hantera ditt Aff&auml;rskonto online",
					"copy" : "Registrera dig [[link]] f&ouml;r att hantera ditt Aff&auml;rskonto online och f&aring; mer kontroll &ouml;ver ditt konto samt:",
					"links" :[
						{
							"linktext" : "h&auml;r",
							"link" : "https://merchant-channel.americanexpress.com/merchant/sv_SE/home",
							"colour" : "000000"
						}
					],
					"bullets" : [
						"F&aring; tillg&aring;ng till dina kontoutdrag",
						"Se dagliga transaktioner och kommande betalningar",
						"Ta emot p&aring;minnelser och meddelanden",
						"Uppdatera kontaktinformationen f&ouml;r ditt konto, inklusive din e-postadress",
						"Sp&aring;ra och hantera reklamationer f&ouml;r att minska antalet &aring;terdebiteringar"
					]
				},
				{
					"type" : "display",
					"alt" : "S&aring; h&auml;r placerar du v&aring;r dekal",
					"header" : "S&aring; h&auml;r placerar du v&aring;r dekal",
					"copy" : "S&auml;tt upp v&aring;r dekal i ditt f&ouml;nster eller vid din kassa f&ouml;r att visa v&auml;gen f&ouml;r American Express Kortmedlemmar. Det &auml;r ocks&aring; bra att informera dina anst&auml;llda att din verksamhet nu &auml;ven v&auml;lkomnar alla American Express-Kort. Du b&ouml;r redan ha f&aring;tt dina dekaler med posten. Men om du vill best&auml;lla fler dekaler och skyltar eller ladda ner en digital version av v&aring;r logotyp f&ouml;r din webbsida, klickar du&nbsp;[[link]].",
					"links" : [
						{
							"linktext" : "h&auml;r",
							"link" : "https://merchant-supplies.americanexpress.com/?locale=sv_SE#/",
							"colour" : "000000"
						}
					]
				},
				{
					"type" : "didyouknow",
					"alt" : "V&auml;rt att veta!",
					"header" : "V&auml;rt att veta!",
					"copy" : "14% av den totala summan f&ouml;r k&ouml;p i Sverige 2015 var av internationella Kortmedlemmar. Den totala summan f&ouml;r k&ouml;p i Sverige av internationella American Express Kortmedlemmar &ouml;kade med 13% 2015 j&auml;mf&ouml;rt med&nbsp;2014.*"
				}
			]
		},
		{
			"type" : "anyquestions",
			"header" : "N&aring;gra fr&aring;gor?",
			"text" : "Vill du ha mer information, bes&ouml;k <a href=\"http://americanexpress.se/affarspartners\" target=\"_blank\" style=\"color:#88d3e1;text-decoration:none;\">americanexpress.se/affarspartners</a> eller ring oss p&aring; <a href=\"tel:084295680\" style=\"color:#88d3e1;text-decoration:none;\">08-429&nbsp;56&nbsp;80</a><sup class=\"supx2\">&dagger;</sup>",
			"label" : "Bes&ouml;k v&aring;r webbsida",
			"link" : "https://merchant-channel.americanexpress.com/merchant/sv_SE/home"
		},
		{
			"type" : "footer",
			"flink1-text" : "Kontakta F&ouml;retagsservice",
			"flink1-link" : "https://www.americanexpress.com/se/content/merchant/contact-us.html",
			"flink2-text" : "Sekretesspolicy",
			"flink2-link" : "https://www.americanexpress.com/se/content/privacy-policy.html",
			"flink3-text" : "Uppdatera kontaktinformation",
			"flink3-link" : "https://merchant-channel.americanexpress.com/merchant/sv_SE/home",
			"terms-header" : "&nbsp;",
			"terms-items" : [
				{
					"marker" : "*",
					"copy" : "K&auml;lla: Data fr&aring;n American Express. Internationella Kortmedlemmar definieras som icke-svenska Amex Kortmedlemmar (inklusive USA) som har gjort ink&ouml;p i Sverige under 2015. Data f&ouml;r Europa inkluderar: Storbritannien, Frankrike, Tyskland, Spanien, Nederl&auml;nderna, Sverige, Finland och &Ouml;sterrike. Internationell ink&ouml;psinformation omfattar b&aring;de online- och&nbsp;offlinek&ouml;p."
				},
				{
					"marker" : "",
					"copy" : "Friskrivning: De varum&auml;rken som anv&auml;nds h&auml;r tillh&ouml;r sina respektive&nbsp;&auml;gare."
				},
				{
					"marker" : "&dagger;",
					"copy" : "F&ouml;retagsservice 08-429 56 80, m&aring;ndag till fredag, 08.00 &ndash; 17.00 Om du har fr&aring;gor om din kortterminal, kontakta din terminalleverant&ouml;r. Kontokontrollen 020-26&nbsp;39&nbsp;26"
				},
				{
					"marker" : "",
					"copy" : "American Express Payment Services Limited, England filial, org nr 516405-9825 (Bolagsverkets filialregister), 106 82 Stockholm, Sverige. Filial till American Express Payment Services Limited, s&auml;te: Belgrave House, 76 Buckingham Palace Road, London SW1W 9AX, Storbritannien. Ett aktiebolag bildat i England och Wales, registreringsnummer 06.301.718 (registrerat i the Registrar of Companies). American Express Payment Services Limited &auml;r auktoriserat av Financial Conduct Authority i Storbritannien i enlighet med Payment Services Regulations 2009 med registreringsnummer 484.347 f&ouml;r tillhandah&aring;llande av&nbsp;betaltj&auml;nster."
				},
				{
					"marker" : "",
					"copy" : "Copyright &copy; 2018. American Express Company. Alla r&auml;ttigheter&nbsp;f&ouml;rbeh&aring;lles."
				}
			]
		}
	]

}
