{
	"template" : "at-risk-smp.html",
	"language" : "sv",
	"output" : "at-risk-smp-sv.html",
	"languagecode" : "sv",
	"subject" : "Vi ville bara h&ouml;ra av oss, eftersom du inte har varit s&aring; aktiv p&aring; sistone.",
	"browserview" : {
		"text" : "Kan du inte se inneh&aring;llet i detta mail [[link]].",
		"links" : [
			{
				"linktext" : "klicka h&auml;r",
				"link" : "http://ebm.email.americanexpress.com/c/tag/%%t%%/doc.html?t_sparams=%%t_sparams%%",
				"colour" : "ffffff"
			}
		]
	},
	"amexlink" : "https://merchant-channel.americanexpress.com/merchant/sv_SE/home",
	"amexalt" : "American Express&reg;",
	"merchant" : "Anslutningsnummer",
	"merchantnumber" : "&lt;XXXXXX&gt;",
	"modules" : [
		{
			"type" : "title",
			"text" : "Vi ville bara h&ouml;ra av oss, eftersom du inte har varit s&aring; aktiv p&aring; sistone."
		},
		{
			"type" : "hero",
			"alt" : "Vi ville bara h&ouml;ra av oss, eftersom du inte har varit s&aring; aktiv p&aring; sistone.",
			"img" : "img/sv/yes7.png"
		},
		{
			"type" : "intro",
			"text" : "Vi ville bara h&ouml;ra om allting fungerar som det ska eller om vi kan hj&auml;lpa till med n&aring;gonting? Kom ih&aring;g att du bara betalar 1,9% i serviceavgift f&ouml;r alla American <font style=\"white-space:nowrap;\">Express<sup class=\"supx1\">&reg;</sup></font>-Kort. Vi tar inte ut n&aring;gra avgifter per transaktion s&aring; 1,9% &auml;r det enda du betalar f&ouml;r att acceptera v&aring;ra&nbsp;Kort.",
			"bottommargin" : "yes"
		},
		{
			"type" : "submodules",
			"items" : [
				{
					"type" : "revenue",
					"alt" : "S&auml;g ja till &ouml;kade int&auml;kter f&ouml;r din verksamhet",
					"header" : "S&auml;g ja till &ouml;kade int&auml;kter f&ouml;r din verksamhet",
					"copy" : "14% av den totala summan f&ouml;r k&ouml;p i Sverige 2015 var av internationella Kortmedlemmar. Den totala summan f&ouml;r k&ouml;p i Sverige av internationella American Express Kortmedlemmar &ouml;kade med 13% 2015 j&auml;mf&ouml;rt med 2014.* S&aring; genom att s&auml;ga &ldquo;Ja&rdquo; ger du inte bara dina kunder m&ouml;jligheten att betala som de vill, du kanske ocks&aring; &ouml;kar int&auml;kterna f&ouml;r din&nbsp;verksamhet.",
					"links" : []
				},
				{
					"type" : "display",
					"alt" : "S&aring; h&auml;r placerar du v&aring;r dekal",
					"header" : "S&aring; h&auml;r placerar du v&aring;r dekal",
					"copy" : "S&auml;tt upp v&aring;r dekal i ditt f&ouml;nster eller vid din kassa f&ouml;r att visa v&auml;gen f&ouml;r v&aring;ra Kortmedlemmar. Det &auml;r ocks&aring; bra att informera dina anst&auml;llda att din verksamhet nu &auml;ven v&auml;lkomnar alla American Express-Kort. Du b&ouml;r redan ha f&aring;tt dina dekaler med posten. Men om du vill best&auml;lla fler dekaler och skyltar eller ladda ner en digital version av v&aring;r logotyp f&ouml;r din webbsida, klickar du&nbsp;[[link]].",
					"links" : [
						{
							"linktext" : "h&auml;r",
							"link" : "https://merchant-supplies.americanexpress.com/?locale=sv_SE#/",
							"colour" : "000"
						}
					]
				},
				{
					"type" : "didyouknow",
					"alt" : "Undrar du &ouml;ver n&aring;got?",
					"header" : "Undrar du &ouml;ver n&aring;got?",
					"copy" : "Om n&aring;gonting fortfarande &auml;r oklart, eller om du har en fr&aring;ga om v&aring;r service, finns vi p&aring; plats f&ouml;r att hj&auml;lpa dig p&aring; alla s&auml;tt."
				}
			]
		},
		{
			"type" : "anyquestions",
			"header" : "N&aring;gra fr&aring;gor?",
			"text" : "Vill du ha mer information, bes&ouml;k <a href=\"http://americanexpress.se/affarspartners\" target=\"_blank\" style=\"color:#88d3e1;text-decoration:none;\">americanexpress.se/affarspartners</a> eller ring oss p&aring; <a href=\"tel:084295680\" style=\"color:#88d3e1;text-decoration:none;\">08-429&nbsp;56&nbsp;80</a><sup class=\"supx2\">&dagger;</sup>",
			"label" : "Bes&ouml;k v&aring;r webbsida",
			"link" : "https://merchant-channel.americanexpress.com/merchant/sv_SE/home"
		},
		{
			"type" : "footer",
			"flink1-text" : "Kontakta F&ouml;retagsservice",
			"flink1-link" : "https://www.americanexpress.com/se/content/merchant/contact-us.html",
			"flink2-text" : "Sekretesspolicy",
			"flink2-link" : "https://www.americanexpress.com/se/content/privacy-policy.html",
			"flink3-text" : "Uppdatera kontaktinformation",
			"flink3-link" : "https://merchant-channel.americanexpress.com/merchant/sv_SE/home",
			"terms-header" : "&nbsp;",
			"terms-items" : [
				{
					"marker" : "*",
					"copy" : "K&auml;lla: Data fr&aring;n American Express. Internationella Kortmedlemmar definieras som icke-svenska Amex Kortmedlemmar (inklusive USA) som har gjort ink&ouml;p i Sverige under 2015. Data f&ouml;r Europa inkluderar: Storbritannien, Frankrike, Tyskland, Spanien, Nederl&auml;nderna, Sverige, Finland och &Ouml;sterrike. Internationell ink&ouml;psinformation omfattar b&aring;de online- och&nbsp;offlinek&ouml;p."
				},
				{
					"marker" : "",
					"copy" : "Friskrivning: De varum&auml;rken som anv&auml;nds h&auml;r tillh&ouml;r sina respektive&nbsp;&auml;gare."
				},
				{
					"marker" : "&dagger;",
					"copy" : "F&ouml;retagsservice 08-429 56 80, m&aring;ndag till fredag, 08.00 &ndash; 17.00 Om du har fr&aring;gor om din kortterminal, kontakta din terminalleverant&ouml;r. Kontokontrollen 020-26&nbsp;39&nbsp;26"
				},
				{
					"marker" : "",
					"copy" : "American Express Payment Services Limited, England filial, org nr 516405-9825 (Bolagsverkets filialregister), 106 82 Stockholm, Sverige. Filial till American Express Payment Services Limited, s&auml;te: Belgrave House, 76 Buckingham Palace Road, London SW1W 9AX, Storbritannien. Ett aktiebolag bildat i England och Wales, registreringsnummer 06.301.718 (registrerat i the Registrar of Companies). American Express Payment Services Limited &auml;r auktoriserat av Financial Conduct Authority i Storbritannien i enlighet med Payment Services Regulations 2009 med registreringsnummer 484.347 f&ouml;r tillhandah&aring;llande av&nbsp;betaltj&auml;nster."
				},
				{
					"marker" : "",
					"copy" : "Copyright &copy; 2018. American Express Company. Alla r&auml;ttigheter&nbsp;f&ouml;rbeh&aring;lles."
				}
			]
		}
	]
}
