{
	"template" : "at-risk-smp.html",
	"language" : "es",
	"output" : "at-risk-smp-es.html",
	"languagecode" : "es",
	"subject" : "Ha pasado un tiempo, &iquest;todo bien?",
	"browserview" : {
		"text" : "Si tiene problemas para ver este email, [[link]].",
		"links" : [
			{
				"linktext" : "mostrar en navegador",
				"link" : "http://ebm.email.americanexpress.com/c/tag/%%t%%/doc.html?t_sparams=%%t_sparams%%",
				"colour" : "ffffff"
			}
		]
	},
	"amexlink" : "https://merchant-channel.americanexpress.com/merchant/es_ES/home",
	"amexalt" : "American Express&reg;",
	"merchant" : "N&uacute;mero de Establecimiento American Express",
	"merchantnumber" : "&lt;XXXXXX&gt;",
	"modules" : [
		{
			"type" : "title",
			"text" : "&iquest;Podemos ayudarle a decir &quot;S&Iacute;&quot; m&aacute;s a menudo a American <font style=\"white-space:nowrap;\">Express<sup class=\"supx1\">&reg;</sup></font>?"
		},
		{
			"type" : "hero",
			"alt" : "&iquest;Podemos ayudarle a decir &quot;S&Iacute;&quot; m&aacute;s a menudo a American Express&reg;?",
			"img" : "img/es/yes7.png"
		},
		{
			"type" : "intro",
			"text" : "Estimado Colaborador,<br><br>Solo queremos asegurarnos de que todo vaya bien y saber si hay algo que podamos hacer por usted.<br><br>Adem&aacute;s queremos recordarle que ya puede decir &ldquo;SI&rdquo; a American Express<sup class=\"supx1\">&reg;</sup> y beneficiarse de nuestra tasa de descuento<sup class=\"supx1\">1</sup> del 1,5% para todas las Tarjetas American Express. Recuerde que no le cobramos cuotas anuales por procesamiento, actualizaci&oacute;n del terminal o los estados de cuenta en papel.",
			"bottommargin" : "yes"
		},
		{
			"type" : "submodules",
			"items" : [
				{
					"type" : "revenue",
					"alt" : "Diga &ldquo;SI&rdquo; a m&aacute;s ventas",
					"header" : "Diga &ldquo;SI&rdquo; a m&aacute;s ventas",
					"copy" : "Los Titulares American Express espa&ntilde;oles declaran que realizan un gasto medio de 1.626 &euro; con todas las tarjetas de cr&eacute;dito en un mes normal, frente a los 776 &euro; de media de gasto declarada por los titulares espa&ntilde;oles de otras tarjetas.* Al decir &ldquo;SI&rdquo; a American Express no solo ofrece a sus clientes la flexibilidad de pagar como prefieran, sino que tambi&eacute;n podr&iacute;a obtener m&aacute;s ingresos para su negocio.",
					"links" : []
				},
				{
					"type" : "display",
					"alt" : "D&oacute;nde colocar nuestro logo",
					"header" : "D&oacute;nde colocar nuestro logo",
					"copy" : "Colocar nuestro logo en su escaparate o junto a su terminal de punto de venta le ayudar&aacute; a atraer Titulares, aunque tambi&eacute;n conviene que informe a sus empleados de que desde ahora tambi&eacute;n se aceptan Tarjetas American Express en su establecimiento. Aunque seguramente ya habr&aacute; recibido material para punto de venta por correo postal, si desea solicitar m&aacute;s adhesivos o distintivos, o descargar la versi&oacute;n digital de nuestro logo para su p&aacute;gina web, haga clic [[link]].",
					"links" : [
						{
							"linktext" : "aqu&iacute;",
							"link" : "https://merchant-supplies.americanexpress.com/?locale=es_ES#/",
							"colour" : "000"
						}
					]
				},
				{
					"type" : "didyouknow",
					"alt" : "&iquest;Sab&iacute;a que...?",
					"header" : "&iquest;Sab&iacute;a que...?",
					"copy" : "El 67% de los Titulares American Express espa&ntilde;oles declaran que est&aacute;n de acuerdo con que siempre prefieren utilizar su Tarjeta American Express tanto para compras m&aacute;s caras como para compras diarias m&aacute;s peque&ntilde;as.*"
				},
				{
					"type" : "hquestions",
					"alt" : "&iquest;Alguna pregunta?",
					"header" : "&iquest;Alguna pregunta?",
					"copy" : "Si tiene alguna duda o desea realizar alguna [[link]] relacionada con nuestro servicio, p&oacute;ngase en contacto con el Servicio de Atenci&oacute;n a Establecimientos en el 902&nbsp;100&nbsp;956 de 9:30 a 20:00h de lunes a viernes.",
					"links" : [
						{
							"linktext" : "consulta",
							"link" : "https://www.americanexpress.com/es/content/merchant/get-support/contact-us.html",
							"colour" : "000"
						}
					]
				}
			]
		},
		{
			"type" : "anyquestions",
			"header" : "&iquest;Alguna pregunta?",
			"text" : "Contacte con nosotros en el  <a href=\"tel:902100956\" style=\"color:#88d3e1;text-decoration:none;\">902&nbsp;100&nbsp;956</a>* o visite nuestro sitio web para Establecimientos",
			"label" : "Conocer m&aacute;s",
			"link" : "https://www209.americanexpress.com/merchant/dashboard/es_ES/home"
		},
		{
			"type" : "footer",
			"flink1-text" : "Contacte con nosotros",
			"flink1-link" : "https://www.americanexpress.com/es/content/merchant/get-support/contact-us.html",
			"flink2-text" : "Declaraci&oacute;n de privacidad",
			"flink2-link" : "https://www.americanexpress.com/es/content/data-protection.html",
			"flink3-text" : "Actualizar email",
			"flink3-link" : "https://www209.americanexpress.com/merchant/dashboard/es_ES/login?TARGET=https%3A%2F%2Fwww209.americanexpress.com%2Fmerchant%2Fprofile%2Fes_ES%2Fsecure%2Fhome#page=loadContactInfo%20",
			"terms-header" : "Informaci&oacute;n importante:",
			"terms-items" : [
				{
					"marker" : "1",
					"copy" : "La tasa de descuento del 1,5% es efectiva hasta alcanzar un volumen de facturaci&oacute;n anual acordado, por sociedad, con las Tarjetas American Express. Dicho volumen le habr&aacute; sido comunicado en el momento de aplicarle esta tasa de descuento. Si superara dicho volumen, se le podr&aacute; aplicar un cambio en su tasa de descuento de acuerdo a los t&eacute;rminos y condiciones que usted tiene con American Express, siempre con notificaci&oacute;n previa."
				},
				{
					"marker" : "*",
					"copy" : "Fuente: Encuesta a trav&eacute;s de un panel en Internet encargada por American Express y llevada a cabo entre enero 2016 y marzo 2016 y basada en compras realizadas en los 6 meses anteriores a la encuesta. Definici&oacute;n de Titulares American Express: Aquellos encuestados que declararon poseer una Tarjeta American Express y que utilizaron dicha Tarjeta para realizar compras durante los 6 meses anteriores. Definici&oacute;n de titulares de otras tarjetas: Aquellos encuestados que declararon no poseer ning&uacute;n tipo de Tarjeta American Express y que utilizaron tarjetas Visa, MasterCard o cualquier otra tarjeta de cr&eacute;dito para realizar compras durante los 6 meses anteriores."
				},
				{
					"marker" : "**",
					"copy" : "Estamos a su disposici&oacute;n para ayudarle en cualquier momento, por lo que si tiene cualquier pregunta o necesita m&aacute;s informaci&oacute;n, por favor llame a nuestro Servicio de Atenci&oacute;n a Establecimientos al 902&nbsp;100&nbsp;956, de 9:30 a 20:00h de lunes a viernes."
				},
				{
					"marker" : "",
					"copy" : "Exenci&oacute;n de responsabilidad: Las marcas comerciales aqu&iacute; utilizadas son propiedad de sus respectivos propietarios."
				},
				{
					"marker" : "",
					"copy" : "American Express Payment Services Limited, Sucursal en Espa&ntilde;a. NIF W8261677B. American Express Payment Services Limited se encuentra autorizada por la Financial Conduct Authority de conformidad con el Reglamento de Servicios de Pago 2009 (Payment Services Regulations 2009), del Reino Unido (n&uacute;mero de referencia 484347) para la prestaci&oacute;n de servicios de pago e inscrita en el registro del Banco de Espa&ntilde;a bajo el n&uacute;mero 6.804.<br><br><a href=\"http://www.americanexpress.es\" target=\"_blank\" style=\"color:#4d4f53;text-decoration:none;\">www.americanexpress.es</a>"
				},
				{
					"marker" : "",
					"copy" : "Copyright &copy; 2018. American Express Company. Todos los derechos reservados."
				},
				{
				  "marker" : "",
				  "copy" : "Por favor no responda a este email, ha sido enviado desde una direcci&oacute;n no atendida. Este email est&aacute; dirigido a clientes de American Express y fue enviado a %%EMAIL%%. Si recibi&oacute; este mensaje en una direcci&oacute;n diferente, el mensaje fue reenviado."
				}
			]
		}
	]
}
