{
	"template" : "dormant-non-smp.html",
	"language" : "fi",
	"output" : "dormant-non-smp-fi.html",
	"languagecode" : "fi",
	"subject" : "N&auml;yt&auml; tiet&auml; American Express<sup class=\"supx1\">&reg;</sup> -kortinhaltijoille",
	"browserview" : {
		"text" : "Jos et n&auml;e viestin sis&auml;lt&ouml;&auml;, [[link]].",
		"links" : [
			{
				"linktext" : "klikkaa t&auml;st&auml;",
				"link" : "http://ebm.email.americanexpress.com/c/tag/%%t%%/doc.html?t_sparams=%%t_sparams%%",
				"colour" : "ffffff"
			}
		]
	},
	"amexlink" : "https://merchant-channel.americanexpress.com/merchant/fi_FI/home",
	"amexalt" : "American Express&reg;",
	"merchant" : "J&auml;senliikenumero",
	"merchantnumber" : "&lt;XXXXXX&gt;",
	"modules" : [
		{
			"type" : "title",
			"text" : "N&auml;yt&auml; tiet&auml; American <font style=\"white-space:nowrap;\">Express<sup class=\"supx1\">&reg;</sup></font> <br class=\"mhide\">-kortinhaltijoille"
		},
		{
			"type" : "hero",
			"alt" : "N&auml;yt&auml; tiet&auml; American Express&reg; -kortinhaltijoille",
			"img" : "img/fi/yes8.png"
		},
		{
			"type" : "intro",
			"text" : "Tied&auml;th&auml;n, ett&auml; hyv&auml;ksyess&auml;si American Express-kortin maksuv&auml;lineeksi saat k&auml;ytt&ouml;&ouml;si useita k&auml;tevi&auml; ty&ouml;kaluja ja tietoa, joiden avulla voit hallinnoida&nbsp;tili&auml;si.",
			"bottommargin" : "yes"
		},
		{
			"type" : "submodules",
			"items" : [
				{
					"type" : "revenue",
					"alt" : "Sano &ldquo;Kyll&auml;&rdquo; lis&auml;myynnille",
					"header" : "Sano &ldquo;Kyll&auml;&rdquo; lis&auml;myynnille",
					"copy" : "Vuonna 2015 paikallisten ja kansainv&auml;listen American Express -kortinhaltijoiden maksujen kokonaism&auml;&auml;r&auml; kasvoi Suomessa 7 % vuoteen 2014 verrattuna.* Sanomalla &ldquo;kyll&auml;&rdquo; tarjoat asiakkaillesi mahdollisuuden maksaa heid&auml;n haluamallaan tavalla ja kasvatat samalla my&ouml;s liiketoimintasi&nbsp;tuottoja.",
					"links" : []
				},
				{
					"type" : "display",
					"alt" : "&auml;in sijoitat American Express -tarran",
					"header" : "&auml;in sijoitat American Express -tarran",
					"copy" : "American Express -tarra liikkeesi ikkunassa tai myyntip&auml;&auml;tteess&auml; houkuttelee American Express -kortinhaltijoita. Sinun kannattaa my&ouml;s kertoa ty&ouml;ntekij&ouml;illesi, ett&auml; liikkeess&auml;si voi nyt maksaa my&ouml;s American Express -kortilla. Olet varmaankin jo saanut American Express -tarran postissa, mutta jos haluat tilata lis&auml;&auml; tarroja ja kylttej&auml; tai ladata verkkosivustollesi logon s&auml;hk&ouml;isen version, klikkaa&nbsp;[[link]].",
					"links" : [
						{
							"linktext" : "t&auml;st&auml;",
							"link" : "https://merchant-supplies.americanexpress.com/?locale=fi_FI#/",
							"colour" : "000"
						}
					]
				},
				{
					"type" : "didyouknow",
					"alt" : "Onko sinulla kysytt&auml;v&auml;&auml;?",
					"header" : "Onko sinulla kysytt&auml;v&auml;&auml;?",
					"copy" : "Mik&auml;li jokin asia j&auml;i viel&auml; askarruttamaan mielt&auml;si tai haluat kysy&auml; palvelustamme, olemme k&auml;ytett&auml;viss&auml;si."
				}
			]
		},
		{
			"type" : "anyquestions",
			"header" : "Any questions?",
			"text" : "Lis&auml;tietoa saat verkkosivustoltamme <a href=\"http://www.americanexpress.fi/liikepalvelut\" target=\"_blank\" style=\"color:#88d3e1;text-decoration:none;\">www.americanexpress.fi/liikepalvelut</a> tai soittamalla meille numeroon <a href=\"tel:0961320420\" style=\"color:#88d3e1;text-decoration:none;\">09&nbsp;6132&nbsp;0420</a><sup class=\"supx2\">&dagger;</sup>.",
			"label" : "Siirry sivustolle",
			"link" : "https://merchant-channel.americanexpress.com/merchant/fi_FI/home"
		},
		{
			"type" : "footer",
			"flink1-text" : "Ota yhteytt&auml; Liikepalveluihin",
			"flink1-link" : "https://merchant-channel.americanexpress.com/merchant/fi_FI/home",
			"flink2-text" : "Yksityisyydensuoja",
			"flink2-link" : "https://www.americanexpress.com/fi/fi/content/internet-privacy-policy.html?inav=fi_legalfooter_privacy",
			"flink3-text" : "P&auml;ivit&auml; s&auml;hk&ouml;postiosoite",
			"flink3-link" : "https://merchant-channel.americanexpress.com/merchant/fi_FI/home",
			"terms-header" : "&nbsp;",
			"terms-items" : [
				{
					"marker" : "*",
					"copy" : "L&auml;hde: Tiedot American Expressilt&auml;. Kansainv&auml;lisill&auml; kortinhaltijoilla (mukaan lukien USA) tarkoitetaan muita kuin suomalaisia, Suomessa vuonna 2015 American Express -kortillaan maksaneita kortinhaltijoita. Euroopan tietoihin kuuluvat seuraavat maat: Iso-Britannia, Italia, Ranska, Saksa, Espanja, Alankomaat, Ruotsi, Suomi ja It&auml;valta. Kansainv&auml;liset maksut k&auml;sitt&auml;v&auml;t sek&auml; verkossa ett&auml; liikkeiss&auml; tehdyt&nbsp;korttimaksut."
				},
				{
					"marker" : "",
					"copy" : "Erottamislausuma: T&auml;ss&auml; mainitut tavaramerkit ovat omistajiensa&nbsp;omaisuutta."
				},
				{
					"marker" : "&dagger;",
					"copy" : "Liikepalvelut puh. 09 6132 0420 palvelee maanantaista torstaihin klo 9-17 ja perjantaisin klo 9-16. Jos sinulla on kysytt&auml;v&auml;&auml; maksup&auml;&auml;tteest&auml;si, ota yhteytt&auml; maksup&auml;&auml;tetoimittajaasi. Tilivarmennukset puh. 0800 114 646."
				},
				{
					"marker" : "",
					"copy" : "American Express Payment Services Limited. Registered Office: Belgrave House, 76 Buckingham Palace Road, London SW1W 9AX. Registered in England and Wales with Number 06301718. American Express Payment Services Limited is authorised in the United Kingdom by the Financial Conduct Authority under the Payment Services Regulations 2009 (reference number 484347) for the provision of payment&nbsp;services."
				},
				{
					"marker" : "",
					"copy" : "&copy; American Express Companyn rekister&ouml;ity tavaramerkki 2018. Kaikki oikeudet pid&auml;tet&auml;&auml;n."
				}
			]
		}
	]
}
