{
	"template" : "pop-non-smp.html",
	"language" : "de",
	"output" : "pop-non-smp-de.html",
	"languagecode" : "de",
	"subject" : "Lassen Sie Kunden wissen, dass Sie &bdquo;Ja&quot; zu American Express sagen",
	"browserview" : {
		"text" : "Wird diese E-Mail nicht richtig dargestellt? Bitte [[link]] klicken.",
		"links" : [
			{
				"linktext" : "hier",
				"link" : "http://ebm.email.americanexpress.com/c/tag/%%t%%/doc.html?t_sparams=%%t_sparams%%",
				"colour" : "ffffff"
			}
		]
	},
	"amexlink" : "https://merchant-channel.americanexpress.com/merchant/de_DE/home",
	"amexalt" : "American Express&reg;",
	"merchant" : "Vertragspartnernummer",
	"merchantnumber" : "&lt;XXXXXX&gt;",
	"modules" : [
		{
			"type" : "title",
			"text" : "Lassen Sie Kunden wissen, dass Sie &bdquo;Ja&quot; zu American <font style=\"white-space:nowrap;\">Express<sup class=\"supx1\">&reg;</sup></font> sagen"
		},
		{
			"type" : "hero",
			"alt" : "JA!",
			"img" : "img/de/yes.png"
		},
		{
			"type" : "intro",
			"text" : "Wussten Sie schon: 59 % der deutschen American Express Karteninhaber<sup class=\"supx1\">1</sup> geben an, dass sie bei der Entscheidung &uuml;ber Eink&auml;ufe nach Zeichen am Gesch&auml;ft oder Informationen auf dessen Internetseite Ausschau halten, die anzeigen, dass American Express dort akzeptiert&nbsp;wird?<sup class=\"supx1\">2</sup><br><br>Bringen Sie das American Express Logo an Ihrer T&uuml;r, am Fenster oder am Kassenterminal an. Damit sind Karteninhaber und Ihre Mitarbeiter informiert, dass Sie &bdquo;Ja&quot;&quot; zu American Express sagen. Bestellen Sie kostenlos Aufkleber und weiteres Werbematerial und laden Sie das American Express Logo digital f&uuml;r Ihre Website&nbsp;herunter.",
			"bottommargin" : "no"
		},
		{
			"type" : "order1",
			"label" : "Jetzt bestellen",
			"link" : "https://merchant-supplies.americanexpress.com/?locale=de_DE#/"
		},
		{
			"type" : "submodules",
			"items" : [
				{
					"type" : "merchandise",
					"alt" : "American Express&reg;",
					"header" : "American Express Logo platzieren",
					"copy" : "Bestellen Sie kostenlos Aufkleber und Hinweisschilder. So informieren Sie Ihre Kunden, dass Sie &bdquo;Ja&quot; zu American Express&nbsp;sagen.",
					"linktext" : "Jetzt bestellen.",
					"link" : "https://merchant-supplies.americanexpress.com/?locale=de_DE#/"
				},
				{
					"type" : "onlineaccount",
					"alt" : "Onlinezugriff auf Ihr Vertragspartnerkonto",
					"header" : "Onlinezugriff auf Ihr Vertragspartnerkonto",
					"copy" : "Verwalten Sie Ihr Vertragspartnerkonto online und sparen Sie Zeit: Sie k&ouml;nnen Anfragen einfach mit unserem neuen Tool f&uuml;r Serviceanfragen&nbsp;stellen.",
					"linktext" : "Jetzt einloggen.",
					"link" : "https://merchant-channel.americanexpress.com/merchant/de_DE/home"
				}
			]
		},
		{
			"type" : "anyquestions",
			"header" : "Sie haben noch Fragen?",
			"text" : "Rufen Sie uns an unter <a href=\"tel:06997972222\" style=\"color:#88d3e1;text-decoration:none;white-space:nowrap;\">069&nbsp;9797-2222</a><sup class=\"supx2\">&dagger;</sup> oder besuchen Sie unsere Website f&uuml;r Vertragspartner.",
			"label" : "Mehr erfahren",
			"link" : "https://merchant-channel.americanexpress.com/merchant/de_DE/home"
		},
		{
			"type" : "footer",
			"flink1-text" : "Kontakt",
			"flink1-link" : "https://merchant-channel.americanexpress.com/de_DE/contact-us",
			"flink2-text" : "Datenschutzerkl&auml;rung",
			"flink2-link" : "https://www.americanexpress.com/de/content/privacy-policy.html?inav=de_legalfooter_dataprivacy",
			"flink3-text" : "E-Mail-Adresse <br class=\"mhide\">aktualisieren",
			"flink3-link" : "https://merchant-channel.americanexpress.com/merchant/de_DE/home",
			"terms-header" : "Weitere wichtige Informationen",
			"terms-items" : [
				{
					"marker" : "1",
					"copy" : "Definition von American Express Karteninhabern: Befragte, die angaben, dass sie eine American Express Karte haben und dass sie diese Karte verwendet haben, um Eink&auml;ufe in den vorangegangenen sechs Monaten zu&nbsp;t&auml;tigen."
				},
				{
					"marker" : "2",
					"copy" : "Quelle: Von American Express in Auftrag gegebene und von Januar 2016 bis M&auml;rz 2016 durchgef&uuml;hrte Panelbefragung im Internet auf der Grundlage von Eink&auml;ufen, die in den sechs Monaten vor der Befragung get&auml;tigt&nbsp;wurden."
				},
				{
					"marker" : "&dagger;",
					"copy" : "F&uuml;r alle Fragen rund um das Thema Akzeptanz stehen wir Ihnen unter der Telefonnummer 069 9797-2222 zur Verf&uuml;gung (werktags 8.30-17.30 Uhr)."
				},
				{
					"marker" : "",
					"copy" : "<strong>American Express Payment Services Limited</strong>, Zweigniederlassung Frankfurt am Main, Theodor-Heuss-Allee 112, 60486 Frankfurt am Main; Registergericht Frankfurt am Main, HRB 85745. Gesch&auml;ftsleitung Deutschland: Sonja Scott (Vorsitzende), Andreas Heidelmann; Zweigniederlassung einer Gesellschaft mit beschr&auml;nkter Haftung nach dem Recht des Vereinigten K&ouml;nigreichs mit Sitz in London. Directors: David Bailey,  Fabienne M. Cauli, Werner Decker, Michael Jackson, Rafael F. Marquez Garcia, Colin G. O&rsquo;Flaherty, Peter Wright. Registrar of Companies for England and Wales, No. 06301718. American Express Payment Services Limited h&auml;lt eine Erlaubnis der Financial Conduct Authority zur Erbringung von Zahlungsdiensten gem&auml;&szlig; den Vorschriften &uuml;ber die Erbringung von Zahlungsdiensten 2009 (484347).<br><br>&copy;American Express Company. Alle Rechte vorbehalten."
				},
		 		{
					"marker" : "",
					"copy" : "Rechtlicher Hinweis: Die hier verwendeten Markenzeichen sind Eigentum ihrer jeweiligen Inhaber."
				},
				{
				  "marker" : "",
				  "copy" : "Diese E-Mail wurde an %%INSERTEMAIL%% gesendet. Falls Sie diese E-Mail unter einer anderen E-Mail-Adresse erhalten haben, wurde sie Ihnen weitergeleitet. Dies ist eine automatisch generierte E-Mail. Bitte beantworten Sie sie nicht. Alle Rechte vorbehalten."
				}
			]
		}
	]

}
