{
	"template" : "security-policy-smp.html",
	"language" : "fr",
	"output" : "security-policy-smp-fr.html",
	"languagecode" : "fr",
	"subject" : "Siamo qui se hai bisogno di noi",
	"browserview" : {
		"text" : "Visualizzi questa e-mail correttamente? [[link]].",
		"links" : [
			{
				"linktext" : "Aprila nel browser",
				"link" : "http://ebm.email.americanexpress.com/c/tag/%%t%%/doc.html?t_sparams=%%t_sparams%%",
				"colour" : "ffffff"
			}
		]
	},
	"amexlink" : "https://merchant-channel.americanexpress.com/merchant/en_GB/home",
	"amexalt" : "American Express&reg;",
	"merchant" : "Codice Esercente",
	"merchantnumber" : "&lt;XXXXXX&gt;",
	"modules" : [
		{
			"type" : "title",
			"text" : "Un altro motivo per dire 'S&igrave;' ad American Express<sup>&reg;</sup>: siamo sempre qui per aiutarti"
		},
		{
			"type" : "hero",
			"alt" : "Un altro motivo per dire 'S&igrave;' ad American Express&reg;: siamo sempre qui per aiutarti",
			"img" : "img/it/yes3.png"
		},
		{
			"type" : "intro",
			"text" : "Alcune volte, quando un Titolare di Carta ci contatta per chiarimenti su una spesa  che non riconosce o per la quale ha bisogno di informazioni, pu&ograve; essere necessario aprire una contestazione. In quanto Esercente Convenzionato, puoi gestire queste contestazioni attraverso il Servizio Esercizi&nbsp;Online.",
			"bottommargin" : "no"
		},
		{
			"type" : "order1",
			"label" : "Ulteriori informazioni",
			"link" : "https://www.americanexpress.com/uk/content/merchant/dispute-charges-and-fraud.html?inav=gb_business_merch_paymnts_dispute"
		},
		{
			"type" : "follower",
			"text" : "Ecco un altro motivo per dire 'Si' ad American&nbsp;Express."
		},
		{
			"type" : "submodules",
			"items" : [
				{
					"type" : "onepointnine",
					"img" : "img/it/onepointnine.png",
					"alt" : "1,9%",
					"header" : "La tua commissione &egrave; dell'1,90%<sup>1</sup>",
					"copy" : "La tua commissione &egrave; dell'1,90% e si applica a tutte le transazioni con Carte American Express; <em>inoltre non avrai alcun addebito per la produzione degli estratti&nbsp;conto</em>."
				},
				{
					"type" : "merchandise",
					"alt" : "Logo American Express",
					"header" : "Richiedi la vetrofania American Express e altri&nbsp;materiali",
					"copy" : "Ordina vetrofanie e altri materiali per far sapere ai tuoi clienti che accetti American Express.",
					"linktext" : "Richiedi subito.",
					"link" : "https://www.americanexpress.com/it/content/merchant/restricted/marketing-and-communications/materials-for-point-of-sale.html?section=pop"
				},
				{
					"type" : "onlineaccount",
					"alt" : "Servizio Esercizi Online",
					"header" : "Servizio Esercizi Online",
					"copy" : "Tutti gli strumenti necessari per gestire il tuo account online ed avere assistenza quando ne hai&nbsp;bisogno.",
					"linktext" : "Accedi adesso.",
					"link" : "https://www.servizioeserciziamericanexpress.it/portal/server.pt"
				}
			]
		},
		{
			"type" : "anyquestions",
			"header" : "Hai delle domande?",
			"text" : "Chiamaci al numero 800 919 019<sup class=\"supx1\">&dagger;</sup> o visita il nostro sito web dedicato.",
			"label" : "Scopri di pi&ugrave;",
			"link" : "https://merchant-channel.americanexpress.com/merchant/it_IT/home?page=PR&amp;inav=it_menu_business_merch_home"
		},
		{
			"type" : "footer",
			"flink1-text" : "Servizio Esercizi Online",
			"flink1-link" : "https://www.servizioeserciziamericanexpress.it/portal/server.pt",
			"flink2-text" : "Visualizza l'Informativa <br class=\"mhide\">sulla Privacy",
			"flink2-link" : "https://www.americanexpress.com/it/content/privacy-statement.html?inav=it_legalfooter_security",
			"flink3-text" : "Contattaci all’[[link]]",
			"flink3-link" : "800919019",
			"terms-header" : "Informazioni importanti",
			"terms-items" : [
				{
					"marker" : "1",
					"copy" : "La Commissione agevolata &egrave; riservata ad esercizi commerciali con addebiti annuali American Express non superiori a euro 30.000. Qualora tale importo venga superato, potremmo modifi care la Commissione agevolata in base ai Termini e Condizioni per l&rsquo;Accettazione delle Carte American Express."
				},
				{
					"marker" : "&dagger;",
					"copy" : "Servizio Clienti Esercizi Convenzionati 800 919 019 Dal luned&igrave; al sabato, dalle ore 9.00 alle 20.00 Servizio Autorizzazioni 800 864 046 Attivo tutto l&rsquo;anno, 24 ore su 24."
				},
				{
					"marker" : "",
					"copy" : "Attenzione: Questa mail &egrave; una comunicazione di servizio e non una comunicazione contenente offerte promozionali. Non utilizzare l'indirizzo di posta elettronica con cui &egrave; stato inviato il presente email per richiedere informazioni o formulare quesiti. Non verr&agrave; dato alcun seguito alle email ricevute che saranno immediatamente&nbsp;cancellate.<br><br>Questa email &egrave; stata inviata a&nbsp;%%EMAIL%%.<br><br>American Express Payment Services Limited, istituto di pagamento costituito secondo il diritto inglese , con sede legale a Belgrave House, 76 Buckingham Palace Road, SW1W 9AX Londra (UK), iscritta al Registro delle Imprese di Inghilterra e Galles al n. 06301718, autorizzazione alla prestazione di servizi di pagamento rilasciata dalla Financial Conduct Authority (FCA) ai sensi delle norme vigenti nel Regno Unito n. 484347, con sede secondaria in Viale Alexandre Gustave Eiffel n.15, 00148 Roma (Italia) C.F./P.IVA/Iscr.Reg. Imprese di Roma n. 10725181001, iscrizione all&rsquo;albo degli istituti di pagamento di cui all&rsquo;art. 114-septies del Decreto Legislativo 385/1993 n. 36019.8, soggetta alla vigilanza della FCA. Una societ&agrave; del Gruppo American&nbsp;Express."
				}
			]
		}
	]

}
