{
	"template" : "welcome-smp.html",
	"language" : "sv",
	"output" : "welcome-smp-15-sv.html",
	"languagecode" : "sv",
	"subject" : "Tack f&ouml;r att du s&auml;ger &ldquo;Ja&rdquo; till American Express<sup class=\"supx1\">&reg;</sup>",
	"browserview" : {
		"text" : "Kan du inte se inneh&aring;llet i detta mail [[link]].",
		"links" : [
			{
				"linktext" : "klicka h&auml;r",
				"link" : "http://ebm.email.americanexpress.com/c/tag/%%t%%/doc.html?t_sparams=%%t_sparams%%",
				"colour" : "ffffff"
			}
		]
	},
	"amexlink" : "https://merchant-channel.americanexpress.com/merchant/sv_SE/home",
	"amexalt" : "American Express&reg;",
	"merchant" : "Anslutningsnummer",
	"merchantnumber" : "&lt;XXXXXX&gt;",
	"modules" : [
		{
			"type" : "title",
			"text" : "Tack f&ouml;r att du s&auml;ger &ldquo;Ja&rdquo; <br clas=\"mhide\">till American <font style=\"white-space:nowrap;\">Express<sup class=\"supx1\">&reg;</sup></font>"
		},
		{
			"type" : "hero",
			"alt" : "Tack f&ouml;r att du s&auml;ger &ldquo;Ja&rdquo; till American Express&reg;",
			"img" : "img/sv/yes6.png"
		},
		{
			"type" : "intro",
			"text" : "V&auml;lkommen till American Express. Genom att du nu v&auml;lkomnar American Express-Kort f&aring;r du tillg&aring;ng till v&aring;rt n&auml;tverk och v&aring;ra&nbsp;Kortmedlemmar.<br><br>Du f&aring;r tillg&aring;ng till flera anv&auml;ndbara online-verktyg och f&aring;r ocks&aring; tips och information om hur du kan v&auml;xa och v&auml;lkomna nya kunder. Din serviceavgift &auml;r bara 1,5% f&ouml;r alla American Express-Kort. Vi tar inte ut n&aring;gra andra avgifter per transaktion s&aring; 1,5% &auml;r det enda du betalar f&ouml;r att acceptera American&nbsp;Express.",
			"bottommargin" : "yes"
		},
		{
			"type" : "submodules",
			"items" : [
				{
					"type" : "gettingstarted",
					"alt" : "Guide f&ouml;r att komma ig&aring;ng",
					"header" : "Guide f&ouml;r att komma ig&aring;ng",
					"copy" : "Ladda ner v&aring;r [[link]] f&ouml;r att f&aring; veta mer om f&ouml;rdelarna med att acceptera American Express och vad du beh&ouml;ver g&ouml;ra f&ouml;r att b&ouml;rja acceptera v&aring;ra&nbsp;Kort.",
					"links" : [
						{
							"linktext" : "guide f&ouml;r att komma ig&aring;ng",
							"link" : "https://www.americanexpress.com/se/content/merchant/pdf/useful-information-and-downloads/DinGuideTillAmericanExpress.pdf",
							"colour" : "000"
						}
					]
				},
				{
					"type" : "threesteps",
					"alt" : "H&auml;r f&aring;r du en sammanfattning i tre enkla steg",
					"header" : "H&auml;r f&aring;r du en sammanfattning i tre enkla steg",
					"items" : [
						{
							"number" : "1.",
							"text" : "Aktivera din terminal. Kontrollera att din terminal kan ta emot American Express-Kort. V&auml;nligen kontakta din transaktionsf&ouml;rmedlare och/eller terminalleverant&ouml;r f&ouml;r att f&aring; veta hur du&nbsp;g&ouml;r.",
							"links" : []
						},
						{
							"number" : "2.",
							"text" : "Du kommer snart att f&aring; dina f&ouml;nsterdekaler, som visar Kortmedlemmarna att du tar emot American Express. Du kan ladda ner en digital version f&ouml;r din webbsida&nbsp;[[link]].",
							"links" : [
								{
									"linktext" : "h&auml;r",
									"link" : "https://merchant-supplies.americanexpress.com/?locale=sv_SE#/",
									"colour" : "000000"
								}
							]
						},
						{
							"number" : "3.",
							"text" : "Registrera ditt Aff&auml;rskonto [[link]] och kontrollera att din kontoinformation st&auml;mmer. Om inte, ber vi dig kontakta oss snarast. Du f&aring;r ocks&aring; tillg&aring;ng till dina kontoutdrag, dina dagliga transaktioner och kommande betalningar, du kan ta emot p&aring;minnelser och meddelanden, och sp&aring;ra och hantera&nbsp;reklamationer.",
							"links" : [
								{
									"linktext" : "online",
									"link" : "https://merchant-channel.americanexpress.com/merchant/sv_SE/home",
									"colour" : "000000"
								}
							]
						}
					]
				},
				{
					"type" : "didyouknow",
					"alt" : "V&auml;rt att veta!",
					"header" : "V&auml;rt att veta!",
					"copy" : "14% av den totala summan f&ouml;r k&ouml;p i Sverige 2015 var av internationella Kortmedlemmar. Den totala summan f&ouml;r k&ouml;p i Sverige av internationella American Express Kortmedlemmar &ouml;kade med 13% 2015 j&auml;mf&ouml;rt med 2014.* S&aring; genom att s&auml;ga &ldquo;Ja&rdquo; ger du inte bara dina kunder m&ouml;jligheten att betala som de vill, du kanske ocks&aring; &ouml;kar int&auml;kterna f&ouml;r din&nbsp;verksamhet."
				}
			]
		},
		{
			"type" : "anyquestions",
			"header" : "N&aring;gra fr&aring;gor?",
			"text" : "Vill du ha mer information, bes&ouml;k <a href=\"http://americanexpress.se/affarspartners\" target=\"_blank\" style=\"color:#88d3e1;text-decoration:none;\">americanexpress.se/affarspartners</a> eller ring oss p&aring; <a href=\"tel:084295680\" style=\"color:#88d3e1;text-decoration:none;\">08-429&nbsp;56&nbsp;80</a><sup class=\"supx2\">&dagger;</sup>",
			"label" : "Bes&ouml;k v&aring;r webbsida",
			"link" : "https://merchant-channel.americanexpress.com/merchant/sv_SE/home"
		},
		{
			"type" : "footer",
			"flink1-text" : "Kontakta F&ouml;retagsservice",
			"flink1-link" : "https://www.americanexpress.com/se/content/merchant/contact-us.html",
			"flink2-text" : "Sekretesspolicy",
			"flink2-link" : "https://www.americanexpress.com/se/content/privacy-policy.html",
			"flink3-text" : "Uppdatera kontaktinformation",
			"flink3-link" : "https://merchant-channel.americanexpress.com/merchant/sv_SE/home",
			"terms-header" : "&nbsp;",
			"terms-items" : [
				{
					"marker" : "*",
					"copy" : "K&auml;lla: Data fr&aring;n American Express. Internationella Kortmedlemmar definieras som icke-svenska Amex Kortmedlemmar (inklusive USA) som har gjort ink&ouml;p i Sverige under 2015. Data f&ouml;r Europa inkluderar: Storbritannien, Frankrike, Tyskland, Spanien, Nederl&auml;nderna, Sverige, Finland och &Ouml;sterrike. Internationell ink&ouml;psinformation omfattar b&aring;de online- och&nbsp;offlinek&ouml;p."
				},
				{
					"marker" : "",
					"copy" : "Friskrivning: De varum&auml;rken som anv&auml;nds h&auml;r tillh&ouml;r sina respektive&nbsp;&auml;gare."
				},
				{
					"marker" : "&dagger;",
					"copy" : "F&ouml;retagsservice 08-429 56 80, m&aring;ndag till fredag, 08.00 &ndash; 17.00 Om du har fr&aring;gor om din kortterminal, kontakta din terminalleverant&ouml;r. Kontokontrollen 020-26&nbsp;39&nbsp;26"
				},
				{
					"marker" : "",
					"copy" : "American Express Payment Services Limited, England filial, org nr 516405-9825 (Bolagsverkets filialregister), 106 82 Stockholm, Sverige. Filial till American Express Payment Services Limited, s&auml;te: Belgrave House, 76 Buckingham Palace Road, London SW1W 9AX, Storbritannien. Ett aktiebolag bildat i England och Wales, registreringsnummer 06.301.718 (registrerat i the Registrar of Companies). American Express Payment Services Limited &auml;r auktoriserat av Financial Conduct Authority i Storbritannien i enlighet med Payment Services Regulations 2009 med registreringsnummer 484.347 f&ouml;r tillhandah&aring;llande av&nbsp;betaltj&auml;nster."
				},
				{
					"marker" : "",
					"copy" : "Copyright &copy; 2018. American Express Company. Alla r&auml;ttigheter&nbsp;f&ouml;rbeh&aring;lles."
				}
			]
		}
	]
}
