{
	"template" : "welcome-non-smp.html",
	"language" : "fr",
	"output" : "welcome-non-smp-fr.html",
	"languagecode" : "fr",
	"subject" : "Bienvenue ! D&eacute;couvrez vos offres.",
	"browserview" : {
		"text" : "Assurez-vous de la bonne r&eacute;ception de nos e-mails en ajoutant [[link]] &agrave; votre carnet d&rsquo;adresses. Si vous avez des difficult&eacute;s pour visualiser ce message, acc&eacute;dez a la [[link]]. Dites oui a American Express",
		"links" : [
			{
				"linktext" : "AmericanExpress@email.americanexpress.com",
				"link" : "mailto:AmericanExpress@email.americanexpress.com",
				"colour" : "ffffff"
			},
			{
				"linktext" : "version en ligne",
				"link" : "http://ebm.email.americanexpress.com/c/tag/%%t%%/doc.html?t_sparams=%%t_sparams%%",
				"colour" : "ffffff"
			}
		]
	},
	"amexlink" : "https://merchant-channel.americanexpress.com/merchant/fr_FR/home",
	"amexalt" : "American Express&reg;",
	"merchant" : "Num&eacute;ro commer&ccedil;ant",
	"merchantnumber" : "&lt;XXXXXX&gt;",
	"modules" : [
		{
			"type" : "title",
			"text" : "Dire &quot;OUI&quot; &agrave; American Express<sup class=\"supx1\" style=\"font-size:14px;\">&reg;</sup>  a un impact sur votre activit&eacute;."
		},
		{
			"type" : "hero",
			"alt" : "Dire &quot;OUI&quot; &agrave; American Express&reg; a un impact sur votre activit&eacute;.",
			"img" : "img/fr/yes6.png"
		},
		{
			"type" : "intro",
			"text" : "Cher commer&ccedil;ant,<br><br>Bienvenue chez American Express. En acceptant nos cartes, vous faites d&eacute;sormais partie du r&eacute;seau American Express et b&eacute;n&eacute;ficiez &agrave; ce titre d&rsquo;un acc&egrave;s aux clients, aux ressources et outils qui vous aideront &agrave; d&eacute;velopper votre activit&eacute; et &agrave; g&eacute;rer votre compte au&nbsp;quotidien.",
			"bottommargin" : "yes"
		},
		{
			"type" : "signature",
			"text" : "Werner Decker,<br>Senior Vice President, <br>Head of Global Merchant Services Europe"
		},
		{
			"type" : "submodules",
			"items" : [
				{
					"type" : "gettingstarted",
					"alt" : "Guide de d&eacute;marrage",
					"header" : "Guide de d&eacute;marrage",
					"copy" : "T&eacute;l&eacute;chargez notre [[link]] pour en savoir plus sur les avantages du r&eacute;seau American Express et sur ce que vous devez faire pour commencer &agrave; accepter nos cartes.",
					"links" : [
						{
							"linktext" : "Guide de d&eacute;marrage",
							"link" : "https://www.americanexpress.com/fr/content/merchant/pdf/manage-your-account/about-merchant-account/getting-started.pdf",
							"colour" : "000"
						}
					]
				},
				{
					"type" : "threesteps",
					"alt" : "Vous trouverez ci-dessous un r&eacute;sum&eacute; des quatre &eacute;tapes pour d&eacute;marrer",
					"header" : "Vous trouverez ci-dessous un r&eacute;sum&eacute; des quatre &eacute;tapes pour d&eacute;marrer",
					"items" : [
						{
							"number" : "1.",
							"text" : "Pour savoir si vous &ecirc;tes pr&ecirc;t &agrave; accepter nos cartes, imprimez votre relev&eacute; de t&eacute;l&eacute;collecte et v&eacute;rifiez qu&rsquo;American Express y est mentionn&eacute;. Si cela n&rsquo;est pas le cas, veuillez contacter le fournisseur de votre terminal de paiement pour qu&rsquo;il vous aide &agrave; le configurer correctement. Pour plus d&rsquo;informations sur le test de votre terminal, cliquez&nbsp;[[link]].",
							"links" : [
								{
									"linktext" : "ici",
									"link" : "https://www209.americanexpress.com/merchant/dashboard/fr_FR/render/getting-started?section=one",
									"colour" : "000000"
								}
							]
						},
						{
							"number" : "2.",
							"text" : "Vous devriez prochainement recevoir vos autocollants &agrave; apposer sur votre vitrine, ce qui vous permettra d&rsquo;informer les titulaires que vous acceptez les cartes American Express. Vous pouvez &eacute;galement t&eacute;l&eacute;charger une version num&eacute;rique pour votre site web&nbsp;[[link]].",
							"links" : [
								{
									"linktext" : "ici",
									"link" : "https://merchant-supplies.americanexpress.com/?locale=fr_FR&amp;inav=fr_company_merchant_yourcus_supplies#/",
									"colour" : "000000"
								}
							]
						},
						{
							"number" : "3.",
							"text" : "Enregistrez votre compte commer&ccedil;ant [[link]] et assurez-vous que vos informations sont toutes exactes. Si vous rep&eacute;rez une erreur, veuillez nous en informer dans les meilleurs d&eacute;lais. Vous aurez &eacute;galement la possibilit&eacute; d&rsquo;acc&eacute;der &agrave; vos relev&eacute;s, de consulter vos transactions quotidiennes et paiements en attente, de recevoir des alertes et notifications, et d&rsquo;assurer le suivi et la r&eacute;solution des litiges.",
							"links" : [
								{
									"linktext" : "en ligne",
									"link" : "https://www209.americanexpress.com/merchant/dashboard/fr_FR/home",
									"colour" : "000000"
								}
							]
						}
					]
				},
				{
					"type" : "didyouknow",
					"alt" : "Le saviez-vous ?",
					"header" : "Le saviez-vous ?",
					"copy" : "Les Fran&ccedil;ais titulaires d&rsquo;une carte American Express indiquent d&eacute;penser en moyenne 2,1 fois plus que les Fran&ccedil;ais non-titulaires d&rsquo;une carte American Express, toutes cartes de cr&eacute;dit confondues, durant un mois typique.*"
				}
			]
		},
				{
			"type" : "anyquestions",
			"header" : "Des questions?",
			"text" : "Contactez notre service client&egrave;le au <a href=\"tel:0147777575\" style=\"color:#88d3e1;text-decoration:none;\">01&nbsp;47&nbsp;77&nbsp;75&nbsp;75</a><sup class=\"supx2\">&dagger;</sup> ou visitez notre site internet&nbsp;d&eacute;di&eacute;.",
			"label" : "En savoir plus",
			"link" : "https://merchant-channel.americanexpress.com/merchant/fr_FR/home"
		},
		{
			"type" : "footer",
			"flink1-text" : "Contacter le service client&egrave;le",
			"flink1-link" : "https://www.americanexpress.com/fr/content/contact.html?inav=fr_sitefooter_contact_pr",
			"flink2-text" : "Consulter la d&eacute;claration de confidentialit&eacute;",
			"flink2-link" : "https://www.americanexpress.com/fr/content/privacy.html?inav=fr_legalfooter_privacy",
			"flink3-text" : "Mettre &agrave; jour votre adresse &eacute;lectronique",
			"flink3-link" : "https://merchant-channel.americanexpress.com/merchant/fr_FR/home",
			"terms-header" : "Quelques informations importantes",
			"terms-items" : [
				{
					"marker" : "*",
					"copy" : "Source : American Express a commissionn&eacute; une enqu&ecirc;te internet men&eacute;e sur un panel de janvier 2016 &agrave; mars 2016, sur la base d&rsquo;achats effectu&eacute;s au cours des six (6) mois pr&eacute;c&eacute;dant l&rsquo;enqu&ecirc;te. D&eacute;finition des titulaires de la carte American Express<sup class=\"supx1\">&reg;</sup> : participants a l&rsaquo;enqu&ecirc;te qui ont indiqu&eacute; d&eacute;tenir une carte American Express et qui l&rsaquo;ont utilis&eacute;e pour effectuer des achats au cours des six (6) mois pr&eacute;c&eacute;dents. D&eacute;finition des non-titulaires de la carte : participants a l&rsaquo;enqu&ecirc;te qui ont indiqu&eacute; ne d&eacute;tenir aucun type de carte American Express et avoir utilis&eacute; une carte Visa ou MasterCard, ou toute autre carte de paiement, pour effectuer des achats au cours des six (6) mois pr&eacute;c&eacute;dents."
				},
				{
					"marker" : "",
					"copy" : "Clause de non-responsabilit&eacute; : Les marques d&eacute;pos&eacute;es utilis&eacute;es dans le pr&eacute;sent document appartiennent &agrave; leurs propri&eacute;taires respectifs."
				},
				{
					"marker" : "&dagger;",
					"copy" : "Du lundi au vendredi, de 9h00 &agrave; 18h30. Pour vous identifier lors de vos appels, pensez &agrave; vous munir de votre num&eacute;ro de commer&ccedil;ant American Express ainsi que de vos coordonn&eacute;es bancaires. Veillez &agrave; avoir pr&egrave;s de vous les informations relatives &agrave; votre compte commer&ccedil;ant et soyez pr&ecirc;t &agrave; r&eacute;pondre &agrave; des questions de s&eacute;curit&eacute; lorsque vous appelez un de nos repr&eacute;sentants."
				},
				{
					"marker" : "",
					"copy" : "American Express Payment Services Limited, Belgrave House, 76 Buckingham Palace Road, London, SW1W 9AX, Royaume -Uni. Soci&eacute;t&eacute; immatricul&eacute;e en Angleterre et au Pays de Galles sous le n&deg; 06301718. American Express Payment Services Limited est agr&eacute;&eacute;e par la &ldquo;Financial Conduct Authority&rdquo; en vertu de la r&eacute;glementation sur les services de paiement (&ldquo;Payment Services Regulations 2009&rdquo;) pour la fourniture de services de paiement (484347). Pour plus de simplicit&eacute;, vos courriers sont &agrave; adresser &agrave; notre succursale en France : American Express Payment Services Limited &ndash; 4 rue Louis Bl&eacute;riot &ndash; 92500 Rueil-Malmaison Cedex &ndash;&nbsp;France."
				},
				{
					"marker" : "",
					"copy" : "Copyright &copy; 2018. American Express company."
				},
				{
				  "marker" : "",
				  "copy" : "Notez que nous ne sommes pas en mesure de r&eacute;pondre &agrave; quelque question que ce soit par retour de cet e-mail. Cet e-mail a &eacute;t&eacute; adress&eacute; &agrave; %%EMAIL%%. Si vous l&rsquo;avez re&ccedil;u &agrave; une adresse, le message vous a &eacute;t&eacute; re-transmis. Cette offre est destin&eacute;e &agrave; des adresses en France uniquement."
				}
			]
		}
	]
}
