{
	"template" : "activation-smp.html",
	"language" : "de",
	"output" : "activation-smp-de.html",
	"languagecode" : "de",
	"subject" : "Herzlichen Gl&uuml;ckwunsch - Sie haben mit Ihrer ersten Transaktion &bdquo;Ja&ldquo; gesagt!",
	"browserview" : {
		"text" : "Wird diese E-Mail nicht richtig dargestellt? Bitte [[link]] klicken.",
		"links" : [
			{
				"linktext" : "heir",
				"link" : "http://ebm.email.americanexpress.com/c/tag/%%t%%/doc.html?t_sparams=%%t_sparams%%",
				"colour" : "ffffff"
			}
		]
	},
	"amexlink" : "http://americanexpress.de/vertragspartner",
	"amexalt" : "American Express&reg;",
	"merchant" : "Vertragspartnernummer",
	"merchantnumber" : "&lt;XXXXXX&gt;",
	"modules" : [
		{
			"type" : "title",
			"text" : "Herzlichen Gl&uuml;ckwunsch - Sie haben mit Ihrer ersten Transaktion &bdquo;Ja&ldquo; gesagt!"
		},
		{
			"type" : "hero",
			"alt" : "Herzlichen Gl&uuml;ckwunsch - Sie haben mit Ihrer ersten Transaktion &bdquo;Ja&ldquo; gesagt!",
			"img" : "img/de/yes5.png"
		},
		{
			"type" : "intro",
			"text" : "Ab sofort profitieren Sie von unserem Serviceentgelt von 1,9 % * f&uuml;r alle American Express&reg; Karten. Wir berechnen Ihnen weder Entgelte f&uuml;r die Aktualisierung Ihres Kartenterminals noch f&uuml;r die Terminalnutzung oder die monatlichen Papierrechnungen.Sie zahlen also bei einer elektronischen Einreichung f&uuml;r die Akzeptanz unserer Karte 1,9 % Serviceentgelt* und keinen Cent&nbsp;mehr.",
			"bottommargin" : "yes"
		},
		{
			"type" : "submodules",
			"items" : [
				{
					"type" : "statements",
					"alt" : "Erl&auml;uterungen zu Ihrer Abrechnung",
					"header" : "Erl&auml;uterungen zu Ihrer Abrechnung",
					"copy" : "Wir haben unsere elektronische Abrechnung klarer und leichter verst&auml;ndlich gestaltet. Falls Sie weitere Informationen ben&ouml;tigen, laden Sie unsere Erl&auml;uterungen zu Ihrer Abrechnung [[link]]&nbsp;herunter.",
					"links" : [
						{
							"linktext" : "hier",
							"link" : "https://www.americanexpress.com/de/content/merchant/pdf/understanding-your-statement/Zahlungen-Kontoabstimmung-Vertragspartner.pdf",
							"colour" : "000000"
						}
					]
				},
				{
					"type" : "gettingpaid",
					"img" : "img/de/currency.png",
					"alt" : "Schnelle Auszahlung",
					"header" : "Schnelle Auszahlung",
					"copy" : "Wir wissen, wie wichtig Liquidit&auml;t f&uuml;r Ihr Unternehmen ist. Ein guter Grund f&uuml;r uns, den Auszahlungsvorgang f&uuml;r Sie noch transparenter zu gestalten. Haben Sie Fragen zu Ihrem Zahlungsplan, lesen Sie bitte unsere&nbsp;[[link]].",
					"links" :[
						{
							"linktext" : "Allgemeinen Bedingungen f&uuml;r&nbsp;Vertragspartner",
							"link" : "https://www.americanexpress.com/de/content/merchant/get-support/useful-informations-and-downloads.html?inav=de_business_merchants_serviceandsupport_infoanddownloads",
							"colour" : "000000"
						}
					]
				},
				{
					"type" : "account",
					"alt" : "Onlinezugriff auf Ihr Vertragspartnerkonto",
					"header" : "Onlinezugriff auf Ihr Vertragspartnerkonto",
					"copy" : "Sie k&ouml;nnen [[link]] auf Ihr Online-Konto zugreifen und zahlreiche Tools nutzen. Mit nur wenigen Klicks k&ouml;nnen Sie jetzt:",
					"links" :[
						{
							"linktext" : "hier",
							"link" : "https://merchant-channel.americanexpress.com/merchant/de_DE/home",
							"colour" : "000000"
						}
					],
					"bullets" : [
						"Transaktionen und ausstehende Zahlungen tagesaktuell anzeigen&nbsp;lassen.",
						"Registrieren Sie sich f&uuml;r den Erhalt von elektronischen Abrechnungen und erhalten Sie eine Benachrichtigung, sobald Ihre aktuelle Abrechnung online f&uuml;r Sie&nbsp;bereitsteht.",
						"Verfolgen und kl&auml;ren Sie eventuelle Reklamationen und reduzieren Sie das Risiko von R&uuml;ckbelastungen durch Ihre rechtzeitige&nbsp;Antwort.",
						"Aktualisieren Sie die Kontaktdaten Ihres Unternehmens &ndash; einschlie&szlig;lich Ihrer E-Mail-Adresse &ndash; an sieben Tagen in der Woche, rund um die&nbsp;Uhr.",
						"Erhalten Sie Benachrichtigungen im sicheren&nbsp;Modus."
					]
				},
				{
					"type" : "display",
					"alt" : "American Express Logo platzieren",
					"header" : "American Express Logo platzieren",
					"copy" : "Bringen Sie das American Express Logo an Ihrer T&uuml;r, am Fenster oder am Kassenterminal an, um Karteninhaber und Ihre Mitarbeiter zu informieren, dass Ihr Gesch&auml;ft jetzt auch Karten von American Express akzeptiert. Sie sollten Ihre Aufkleber bereits per Post erhalten haben. Falls Sie weitere Aufkleber und Schilder bestellen oder digitale Versionen unseres Logos f&uuml;r Ihre Website herunterladen m&ouml;chten, klicken Sie bitte&nbsp;[[link]].",
					"links" : [
						{
							"linktext" : "hier",
							"link" : "https://merchant-supplies.americanexpress.com/?locale=de_DE#/",
							"colour" : "000000"
						}
					]
				},
				{
					"type" : "didyouknow",
					"alt" : "Wussten Sie, dass &hellip;",
					"header" : "Wussten Sie, dass &hellip;",
					"copy" : "59 % der deutschen American Express Karteninhaber angeben, dass sie bei der Entscheidung &uuml;ber Ausgaben in einem Gesch&auml;ft nach Zeichen am Gesch&auml;ft oder Informationen auf dessen Internetseite Ausschau halten, die anzeigen, dass American Express dort akzeptiert&nbsp;wird?**"
				}
			]
		},
		{
			"type" : "anyquestions",
			"header" : "Noch Fragen?",
			"text" : "Rufen Sie uns an unter <a href=\"tel:06997972222\" style=\"color:#88d3e1;text-decoration:none;\">069&nbsp;9797-2222</a><sup class=\"supx2\">&dagger;</sup> oder besuchen Sie unsere Website f&uuml;r Vertragspartner.",
			"label" : "Mehr erfahren",
			"link" : "https://merchant-channel.americanexpress.com/merchant/de_DE/home"
		},
		{
			"type" : "footer",
			"flink1-text" : "Kontakt",
			"flink1-link" : "https://merchant-channel.americanexpress.com/de_DE/contact-us",
			"flink2-text" : "Datenschutzerkl&auml;rung",
			"flink2-link" : "https://www.americanexpress.com/de/content/privacy-policy.html?inav=de_legalfooter_dataprivacy",
			"flink3-text" : "E-Mail-Adresse <br class=\"mhide\">aktualisieren",
			"flink3-link" : "https://merchant-channel.americanexpress.com/merchant/de_DE/home",
			"terms-header" : "Hier sind einige wichtige Informationen",
			"terms-items" : [
				{
					"marker" : "*",
					"copy" : "Dies gilt, solange Ihr American Express Kartenumsatz in den jeweils vergangenen 12 Monaten weniger als 100.000 Euro betr&auml;gt. Danach berechnen wir f&uuml;r dar&uuml;ber hinausgehende Ums&auml;tze wieder das in Ihrem Serviceantrag vereinbarte&nbsp;Serviceentgelt."
				},
				{
					"marker" : "**",
					"copy" : "Quelle: Von American Express in Auftrag gegebene und von Januar 2016 bis M&auml;rz 2016 durchgef&uuml;hrte Panelbefragung im Internet auf der Grundlage von Eink&auml;ufen, die in den sechs Monaten vor der Befragung get&auml;tigt wurden. Definition von American Express Karteninhabern: Befragte, die angaben, dass sie eine American Express Karte haben und dass sie diese Karte eingesetzt haben, um Eink&auml;ufe in den vorangegangenen sechs Monaten zu t&auml;tigen. Definition von Nicht-Karteninhabern: Befragte, die angaben, dass sie keine der verschiedenen American Express Karten besitzen und dass sie Visa, Mastercard oder andere Kreditkarten verwendet haben, um Eink&auml;ufe in den vorangegangenen sechs Monaten zu t&auml;tigen. Rechtlicher Hinweis: Die hier verwendeten Marken sind Eigentum ihrer jeweiligen&nbsp;Inhaber."
				},
				{
				  "marker" : "&dagger;",
				  "copy" : "F&uuml;r alle Fragen rund um das Thema Akzeptanz stehen wir Ihnen unter der Telefonnummer 069 9797-2222 zur Verf&uuml;gung (werktags 8.30-17.30 Uhr)."
				},
				{
				  "marker" : "",
				  "copy" : "<strong>American Express Payment Services Limited</strong>, Zweigniederlassung Frankfurt am Main, Theodor-Heuss-Allee 112, 60486 Frankfurt am Main; Registergericht Frankfurt am Main, HRB 85745. Gesch&auml;ftsleitung Deutschland: Sonja Scott (Vorsitzende), Andreas Heidelmann; Zweigniederlassung einer Gesellschaft mit beschr&auml;nkter Haftung nach dem Recht des Vereinigten K&ouml;nigreichs mit Sitz in London. Directors: David Bailey,  Fabienne M. Cauli, Werner Decker, Michael Jackson, Rafael F. Marquez Garcia, Colin G. O&rsquo;Flaherty, Peter Wright. Registrar of Companies for England and Wales, No. 06301718. American Express Payment Services Limited h&auml;lt eine Erlaubnis der Financial Conduct Authority zur Erbringung von Zahlungsdiensten gem&auml;&szlig; den Vorschriften &uuml;ber die Erbringung von Zahlungsdiensten 2009 (484347)."
				},
				{
				  "marker" : "",
				  "copy" : "&copy;American Express Company. Alle Rechte vorbehalten."
				},
				{
				  "marker" : "",
				  "copy" : "Rechtlicher Hinweis: Die hier verwendeten Markenzeichen sind Eigentum von American Express."
				},
				{
				  "marker" : "",
				  "copy" : "Bitte antworten Sie nicht auf diese Email. Es wurde von einer nicht &uuml;berwachten E-Mail-Adresse gesendet. Diese E-Mail ist f&uuml;r American Express Akzeptanzpartner bestimmt und wurde an %% EMAIL %% gesendet. Wenn Sie diese E-Mail von einer anderen Adresse erhalten haben, wurde diese E-Mail&nbsp;weitergeleitet."
				}
			]
		}
	]

}
