{
	"template" : "anniversary-non-smp.html",
	"language" : "en",
	"output" : "anniversary-non-smp-en.html",
	"languagecode" : "en",
	"subject" : "Thanks for saying 'Yes' to American Express® since &lt;date&gt;",
	"browserview" : {
		"text" : "Trouble viewing this email,  [[link]].",
		"links" : [
			{
				"linktext" : "view in browser",
				"link" : "http://ebm.email.americanexpress.com/c/tag/%%t%%/doc.html?t_sparams=%%t_sparams%%",
				"colour" : "ffffff"
			}
		]
	},
	"amexlink" : "https://merchant-channel.americanexpress.com/merchant/en_GB/home",
	"amexalt" : "American Express&reg;",
	"merchant" : "Merchant Number",
	"merchantnumber" : "&lt;XXXXXX&gt;",
	"modules" : [
		{
			"type" : "title",
			"text" : "Thanks for saying 'Yes' <br class=\"mhide\">to American <font style=\"white-space:nowrap;\">Express<sup class=\"supx1\">&reg;</sup></font> since &lt;date&gt;"
		},
		{
			"type" : "hero",
			"alt" : "Thanks for saying 'Yes' to American Express&reg; since &lt;date&gt;",
			"img" : "img/en/yes2.png"
		},
		{
			"type" : "intro",
			"text" : "Dear Merchant,<br><br>Thank you for saying 'Yes' to American Express. Businesses like yours are important to us and we value your&nbsp;loyalty.<br><br>We work hard to understand your business and provide services to help make your life easier, so you have even more reasons to say &lsquo;Yes&rsquo;. You'll find some of these reasons below, and we look forward to many more years of working together in the&nbsp;future.<br><br>Yours sincerely,",
			"bottommargin" : "no"
		},
		{
			"type" : "signature",
			"text" : "Werner Decker,<br>Senior Vice President, <br>Head of Global Merchant Services Europe"
		},
		{
			"type" : "submodules",
			"items" : [
				{
					"type" : "merchandise",
					"alt" : "American Express&reg;",
					"header" : "Order logos and supplies",
					"copy" : "Order complimentary signs and stickers to let your customers know you say &lsquo;Yes&rsquo; to American&nbsp;Express.",
					"linktext" : "Order Now.",
					"link" : "https://www209.americanexpress.com/merchant/marketing-data-intl/emea/en_GB/pages/home?section=pop"
				},
				{
					"type" : "onlineaccount",
					"alt" : "Online Account support",
					"header" : "Online Account support",
					"copy" : "All the tools to manage your Account online, plus instant online support whenever you need&nbsp;it.",
					"linktext" : "Login Now.",
					"link" : "https://www209.americanexpress.com/merchant/dashboard/en_GB/home?inav=gb_business_merch_home"
				}
			]
		},
		{
			"type" : "anyquestions",
			"header" : "Any questions?",
			"text" : "Call us on <a href=\"tel:08000327216\" style=\"color:#88d3e1;text-decoration:none;\">0800&nbsp;032&nbsp;72&nbsp;16</a><sup class=\"supx2\">&dagger;</sup> or visit our dedicated&nbsp;website.",
			"label" : "Find out more",
			"link" : "https://merchant-channel.americanexpress.com/merchant/en_GB/home?inav=gb_menu_business_merch_home"
		},
		{
			"type" : "footer",
			"flink1-text" : "Contact Customer Services",
			"flink1-link" : "https://www.americanexpress.com/uk/content/need-help/contact-us.html#content10",
			"flink2-text" : "View Privacy Statement",
			"flink2-link" : "https://www.americanexpress.com/uk/content/internet-privacy-statement.html?inav=gb_legalfooter_privacy",
			"flink3-text" : "Update email address",
			"flink3-link" : "https://www.americanexpress.com/uk/content/merchant/manage-your-account/online-merchant-services.html?inav=gb_business_merch_mngacct_mymchacct",
			"terms-header" : "Here's some important information.",
			"terms-items" : [
				{
					"marker" : "&dagger;",
					"copy" : "We're available 8am to 6pm, Monday to Friday, Saturdays and Bank Holidays (excluding Christmas Day and New Year’s Day), 9am to 5pm. Because we want to make sure we're doing a good job, we may monitor or record our&nbsp;calls."
				},
				{
					"marker" : "",
					"copy" : "American Express Payment Services Limited. Registered Office: Belgrave House, 76 Buckingham Palace Road, London, SW1W 9AX. Registered in England and Wales with Number 06301718. American Express Payment Services Limited is authorised in the United Kingdom by the Financial Conduct Authority under the Payment Services Regulations 2009 (reference number 484347) for the provision of payment&nbsp;services."
				},
				{
					"marker" : "",
					"copy" : "Disclaimer: The trademarks used herein are the property of their respective&nbsp;owners."
				},
				{
					"marker" : "",
					"copy" : "Please do not reply to this email, it was sent from an unmonitored email address. This email is intended for American Express customers and was sent to %%EMAIL%%. If you received this email at a different email address, this email message was&nbsp;forwarded."
				}
			]
		}
	]
}
