{
	"template" : "anniversary-non-smp.html",
	"language" : "es",
	"output" : "anniversary-non-smp-es.html",
	"languagecode" : "es",
	"subject" : "Gracias por decir &quot;SI&quot; a American Express",
	"browserview" : {
		"text" : "Si tiene problemas para ver este email, [[link]].",
		"links" : [
			{
				"linktext" : "mostrar en navegador",
				"link" : "http://ebm.email.americanexpress.com/c/tag/%%t%%/doc.html?t_sparams=%%t_sparams%%",
				"colour" : "ffffff"
			}
		]
	},
	"amexlink" : "https://merchant-channel.americanexpress.com/merchant/en_GB/home",
	"amexalt" : "American Express&reg;",
	"merchant" : "N&ordm; de Establecimiento",
	"merchantnumber" : "&lt;XXXXXX&gt;",
	"modules" : [
		{
			"type" : "title",
			"text" : "Gracias por decir &quot;SI&quot; a American <font style=\"white-space:nowrap;\">Express<sup class=\"supx1\">&reg;</sup></font> desde &lt;fecha&gt;"
		},
		{
			"type" : "hero",
			"alt" : "Gracias por decir &quot;SI&quot; a American Express",
			"img" : "img/es/yes2.png"
		},
		{
			"type" : "intro",
			"text" : "Estimado Colaborador,<br><br>Gracias por decir que &quot;SI&quot; a American Express. Nos importa su negocio y valoramos su&nbsp;lealtad.<br><br>Nos esforzamos por ponernos en su lugar y hacer m&aacute;s f&aacute;cil su d&iacute;a a d&iacute;a para que tenga incluso m&aacute;s razones para decir que &quot;SI&quot;. Queremos recordarle algunas de esas razones y esperamos poder seguir trabajando juntos en el&nbsp;futuro.<br><br>Atentamente,",
			"bottommargin" : "no"
		},
		{
			"type" : "signature",
			"text" : "Werner Decker,<br>Senior Vice President, <br>Head of Global Merchant Services Europe"
		},
		{
			"type" : "submodules",
			"items" : [
				{
					"type" : "merchandise",
					"alt" : "American Express&reg;",
					"header" : "Otros logos y materiales",
					"copy" : "Solicite adhesivos y otros materiales para punto de venta adicionales para dejar claro a sus clientes que dice &quot;SI&quot; a American&nbsp;Express.",
					"linktext" : "Solicitar ahora.",
					"link" : "https://merchant-supplies.americanexpress.com/?locale=es_ES#/"
				},
				{
					"type" : "onlineaccount",
					"alt" : "Ayuda con su Cuenta de Establecimiento online",
					"header" : "Ayuda con su Cuenta de Establecimiento&nbsp;online",
					"copy" : "Todas las herramientas que necesita para gestionar online su Cuenta de Establecimiento, adem&aacute;s de ayuda online instant&aacute;nea cuando la&nbsp;necesite.",
					"linktext" : "Acceder ahora.",
					"link" : "https://merchant-supplies.americanexpress.com/?locale=es_ES#/"
				}
			]
		},
		{
			"type" : "anyquestions",
			"header" : "&iquest;Alguna pregunta?",
			"text" : "Contacte con nosotros en el  <a href=\"tel:902100956\" style=\"color:#88d3e1;text-decoration:none;\">902&nbsp;100&nbsp;956</a>* o visite nuestro sitio web para Establecimientos",
			"label" : "Conocer m&aacute;s",
			"link" : "https://www209.americanexpress.com/merchant/dashboard/es_ES/home"
		},
		{
			"type" : "footer",
			"flink1-text" : "Contacte con nosotros",
			"flink1-link" : "https://www.americanexpress.com/es/content/merchant/get-support/contact-us.html",
			"flink2-text" : "Declaraci&oacute;n de privacidad",
			"flink2-link" : "https://www.americanexpress.com/es/content/data-protection.html",
			"flink3-text" : "Actualizar email",
			"flink3-link" : "https://www209.americanexpress.com/merchant/dashboard/es_ES/login?TARGET=https%3A%2F%2Fwww209.americanexpress.com%2Fmerchant%2Fprofile%2Fes_ES%2Fsecure%2Fhome#page=loadContactInfo%20",
			"terms-header" : "Informaci&oacute;n importante:",
			"terms-items" : [
				{
					"marker" : "*",
					"copy" : "Estamos a su disposici&oacute;n para ayudarle en cualquier momento, por lo que si tiene cualquier pregunta o necesita m&aacute;s informaci&oacute;n, por favor llame a nuestro Servicio de Atenci&oacute;n a Establecimientos al 902&nbsp;100&nbsp;956, de 9:30 a 20:00h de lunes a viernes."
				},
				{
					"marker" : "",
					"copy" : "American Express Payment Services Limited, Sucursal en Espa&ntilde;a. NIF W8261677B. American Express Payment Services Limited se encuentra autorizada por la Financial Conduct Authority de conformidad con el Reglamento de Servicios de Pago 2009 (Payment Services Regulations 2009), del Reino Unido (n&uacute;mero de referencia 484347) para la prestaci&oacute;n de servicios de pago e inscrita en el registro del Banco de Espa&ntilde;a bajo el n&uacute;mero 6.804. <a href=\"http://www.americanexpress.es\" target=\"_blank\" style=\"color:#4d4f53;text-decoration:none;\">www.americanexpress.es</a>"
				},
				{
					"marker" : "",
					"copy" : "La marca y el logo American Express son propiedad de American Express Company. Reservados todos los derechos."
				},
				{
				  "marker" : "",
				  "copy" : "Por favor no responda a este email, ha sido enviado desde una direcci&oacute;n no atendida. Este email est&aacute; dirigido a clientes de American Express y fue enviado a %%EMAIL%%. Si recibi&oacute; este mensaje en una direcci&oacute;n diferente, el mensaje fue reenviado."
				}
			]
		}
	]
}
