{
	"template" : "dormant-non-smp.html",
	"language" : "nl",
	"output" : "dormant-non-smp-nl.html",
	"languagecode" : "nl",
	"subject" : "Zorg ervoor dat American Express&reg; klanten niet aan u voorbij lopen",
	"browserview" : {
		"text" : "Klik [[link]] om deze email in uw browser te lezen.",
		"links" : [
			{
				"linktext" : "hier",
				"link" : "http://ebm.email.americanexpress.com/c/tag/%%t%%/doc.html?t_sparams=%%t_sparams%%",
				"colour" : "ffffff"
			}
		]
	},
	"amexlink" : "https://merchant-channel.americanexpress.com/merchant/nl_NL/home",
	"amexalt" : "American Express&reg;",
	"merchant" : "Aansluitingsnummer:",
	"merchantnumber" : "&lt;XXXXXX&gt;",
	"modules" : [
		{
			"type" : "title",
			"text" : "Zorg ervoor dat American <font style=\"white-space:nowrap;\">Express<sup class=\"supx1\">&reg;</sup></font> klanten niet aan u voorbij lopen"
		},
		{
			"type" : "hero",
			"alt" : "Zorg ervoor dat American Express&reg; klanten niet aan u voorbij lopen",
			"img" : "img/nl/yes8.png"
		},
		{
			"type" : "intro",
			"text" : "Geachte relatie,<br><br>We willen nogmaals benadrukken dat u nu &lsquo;ja&rsquo; kunt zeggen tegen American Express kaarthouders en gebruik kunt maken van onze ondersteuning met vele hulpmiddelen en mogelijkheden om uw account te&nbsp;beheren",
			"bottommargin" : "yes"
		},
		{
			"type" : "submodules",
			"items" : [
				{
					"type" : "revenue",
					"alt" : "Zeg &lsquo;ja&rsquo; tegen het vergroten van uw bedrijfsomzet",
					"header" : "Zeg &lsquo;ja&rsquo; tegen het vergroten van uw bedrijfsomzet",
					"copy" : "Nederlandse American Express kaarthouders spenderen gemiddeld &euro;1.418 aan creditcardbetalingen in een doorsnee maand, vergeleken met &euro;476 gemiddeld door Nederlandse niet-kaarthouders.* Door &lsquo;ja&rsquo; te zeggen, biedt u uw klanten niet alleen de flexibiliteit om te betalen op de manier zoals zij dat graag willen, maar het kan ook de omzet van uw bedrijf&nbsp;vergroten.",
					"links" : []
				},
				{
					"type" : "display",
					"alt" : "Waar toont u ons logo?",
					"header" : "Waar toont u ons logo?",
					"copy" : "Door ons logo te tonen bij uw winkelraam of uw betalingspunt trekt u kaarthouders aan, maar het is ook een goed idee om uw werknemers te laten weten dat uw bedrijf nu ook American Express accepteert. Heeft u al uw stickers ontvangen, maar wilt u nog meer stickers en promotiemateriaal, of een digitale versie van ons logo downloaden voor uw website, klik dan&nbsp;[[link]].",
					"links" : [
						{
							"linktext" : "hier",
							"link" : "https://merchant-supplies.americanexpress.com/?locale=nl_NL#/",
							"colour" : "000"
						}
					]
				},
				{
					"type" : "hquestions",
					"alt" : "Heeft u een vraag?",
					"header" : "Heeft u een vraag?",
					"copy" : "Wij staan altijd voor u klaar om u op alle mogelijke manieren te helpen. Indien er onduidelijkheden zijn of als u vragen heeft over onze service, kunt u gerust [[link]]&nbsp;opnemen.",
					"links" : [
						{
							"linktext" : "contact met ons",
							"link" : "https://merchant-channel.americanexpress.com/nl_NL/faqs",
							"colour" : "000"
						}
					]
				},
				{
					"type" : "didyouknow",
					"alt" : "Wist u dat?",
					"header" : "Wist u dat?",
					"copy" : "65% van de Nederlandse American Express kaarthouders geven aan dat ze de voorkeur hebben om al hun aankopen te betalen met American&nbsp;Express.*"
				}
			]
		},
		{
			"type" : "anyquestions",
			"header" : "Nog vragen?",
			"text" : "Ga voor meer informatie naar onzewebsite of bel ons op <a href=\"tel:0205048333\" style=\"color:#88d3e1;text-decoration:none;white-space:nowrap;\">020-504 8333</a>**.",
			"label" : "Ga naar de site",
			"link" : "https://merchant-channel.americanexpress.com/merchant/nl_NL/home"
		},
		{
			"type" : "footer",
			"flink1-text" : "Klantenservice",
			"flink1-link" : "https://merchant-channel.americanexpress.com/nl_NL/contact-us",
			"flink2-text" : "Privacy Statement",
			"flink2-link" : "https://www.americanexpress.com/nl/content/privacy-statement.html?inav=nl_legalfooter_privacy",
			"flink3-text" : "Update uw gegevens",
			"flink3-link" : "https://merchant-channel.americanexpress.com/nl_NL/contact-us",
			"terms-header" : "",
			"terms-items" : [
				{
					"marker" : "*",
					"copy" : "Bron: Online onderzoek uitgevoerd in opdracht van American Express in januari 2016-maart 2016, gebaseerd op de aankopen van de 6 maanden voorafgaand aan het onderzoek. Definitie van American <font style=\"white-space:nowrap;\">Express<sup class=\"supx1\">&reg;</sup></font>-kaarthouders: ondervraagden die aangeven een American Express-kaart te hebben die kaart te hebben gebruikt voor aankopen in de voorafgaande 6 maanden. Definitie van niet-kaarthouders: ondervraagden die hebben aangegeven dat ze geen American Express-kaart hebben en dat ze een Visacard, Mastercard of andere creditcard hebben gebruikt voor het doen van aankopen in de voorafgaande 6&nbsp;maanden."
				},
				{
					"marker" : "",
					"copy" : "Disclaimer: de handelsmerken die hier gebruikt worden, zijn het eigendom van hun respectievelijke&nbsp;eigenaren."
				},
				{
					"marker" : "",
					"copy" : "American Express Payment Services Limited, handelend middels haar Nederlandse branche, met adres Hoogoorddreef 15, 1101 BA Amsterdam, Nederland, geregistreerd bij het Handelsregister van de Kamer van Koophandel onder nummer 50459945. De Financial Conduct Authority heeft American Express Payment Services Limited de bevoegdheid gegeven om in het Verenigd Koninkrijk betaaldiensten te verlenen in overeenstemming met de Payment Services Regulations 2009 (referentie nummer&nbsp;484347)."
				},
				{
					"marker" : "**",
					"copy" : "Kaartaccepterende Bedrijven 020-504 8333 (optie 2), Maandag tot en met vrijdag van 9.00 uur tot 17.00 uur. Kies optie 2, voor al uw vragen over betalingen, problemen met uw betaalautomaat, of het toevoegen van nieuwe locaties aan uw bedrijf. Kies optie 3 voor hulp met onze website. Bel voor autorisaties of in geval van fraude met 020-504 8666 (optie&nbsp;1)."
				},
				{
					"marker" : "",
					"copy" : "Houd de gegevens van uw account bij de hand en houd rekening met het feit dat u een aantal veiligheidsvragen wordt gesteld wanneer u contact heeft met een van onze medewerkers."
				}
			]
		}
	]
}
