{
	"template" : "pop-smp.html",
	"language" : "fr",
	"output" : "pop-smp-19-fr.html",
	"languagecode" : "fr",
	"subject" : "Plusieurs raisons de dire &quot;Oui&quot; &agrave; American Express",
	"browserview" : {
		"text" : "Cet email ne s'affiche pas correctement ? [[link]]",
		"links" : [
			{
				"linktext" : "Consultez-le dans le navigateur",
				"link" : "http://ebm.email.americanexpress.com/c/tag/%%t%%/doc.html?t_sparams=%%t_sparams%%",
				"colour" : "ffffff"
			}
		]
	},
	"amexlink" : "https://merchant-channel.americanexpress.com/merchant/fr_FR/home",
	"amexalt" : "American Express&reg;",
	"merchant" : "Num&eacute;ro commer&ccedil;ant",
	"merchantnumber" : "&lt;XXXXXX&gt;",
	"modules" : [
		{
			"type" : "title",
			"text" : "Il est utile d'informer vos clients que vous dites &quot;Oui&quot; &agrave;  American Express<sup class=\"sup\">&reg;</sup>"
		},
		{
			"type" : "hero",
			"alt" : "Il est utile d'informer vos clients que vous dites &quot;Oui&quot; &agrave;  American Express",
			"img" : "img/fr/yes2.png"
		},
		{
			"type" : "intro",
			"text" : "Le saviez-vous ?<br><br><strong>62% des Fran&ccedil;ais titulaires d&rsquo;une carte American Express</strong><sup class=\"sup\">1</sup> sont d&rsquo;accord pour dire qu&rsquo;avant d&rsquo;effectuer un achat, ils v&eacute;rifient la signal&eacute;tique ou les logos indiquant si le commer&ccedil;ant accepte la carte American Express<sup class=\"sup\">2</sup>.<br><br>Assurez-vous que tous vos clients savent que vous dites &quot;Oui&quot; &agrave;  American Express en recevant gratuitement la signal&eacute;tique pour votre vitrine ou autre &eacute;l&eacute;ments de la boutique (support factures, additions, menus). Des logos num&eacute;riques sont &eacute;galement disponibles en ligne..",
			"bottommargin" : "no"
		},
		{
			"type" : "order1",
			"label" : "Commandez d&egrave;s maintenant",
			"link" : "https://www.americanexpress.com/fr/content/merchant/marketing/supplies.html?inav=fr_company_merchant_yourcus_supplies"
		},
		{
			"type" : "submodules",
			"items" : [
				{
					"type" : "onepointnine",
					"img" : "img/fr/onepointnine.png",
					"alt" : "Votre taux est de 1,9%",
					"header" : "Votre taux est de 1,9%<sup class=\"sup\">3</sup>",
					"copy" : "Vous b&eacute;n&eacute;ficiez aujourd'hui de nouvelles conditions avantageuses avec un taux de commission de 1,9% qui vous a &eacute;t&eacute; r&eacute;cemment&nbsp;propos&eacute;."
				},
				{
					"type" : "merchandise",
					"alt" : "American Express&reg;",
					"header" : "Commandez gratuitement votre signal&eacute;tique",
					"copy" : "Pensez &agrave; afficher le logo American Express pour attirer plus de&nbsp;titulaires.",
					"linktext" : "Commandez d&egrave;s maintenant",
					"link" : "https://www.americanexpress.com/fr/content/merchant/marketing/supplies.html?inav=fr_company_merchant_yourcus_supplies"
				},
				{
					"type" : "onlineaccount",
					"alt" : "G&eacute;rez votre compte en ligne",
					"header" : "G&eacute;rez votre compte en ligne",
					"copy" : "Retrouvez tous les outils vous permettant de g&eacute;rer votre compte en ligne ainsi qu'une assistance en ligne  d&egrave;s que vous en avez&nbsp;besoin.",
					"linktext" : "Connectez-vous d&egrave;s maintenant",
					"link" : "https://merchant-channel.americanexpress.com/merchant/fr_FR/home"
				}
			]
		},
		{
			"type" : "anyquestions",
			"header" : "Des questions?",
			"text" : "Contactez notre service client&egrave;le au 01&nbsp;47&nbsp;77&nbsp;75&nbsp;75<sup class=\"sup\">&dagger;</sup> ou visitez notre site internet&nbsp;d&eacute;di&eacute;.",
			"label" : "En savoir plus",
			"link" : "https://merchant-channel.americanexpress.com/merchant/fr_FR/home"
		},
		{
			"type" : "footer",
			"flink1-text" : "Contacter le service client&egrave;le",
			"flink1-link" : "https://www.americanexpress.com/fr/content/contact.html?inav=fr_sitefooter_contact_pr",
			"flink2-text" : "Consulter la d&eacute;claration de confidentialit&eacute;",
			"flink2-link" : "https://www.americanexpress.com/fr/content/privacy.html?inav=fr_legalfooter_privacy",
			"flink3-text" : "Mettre &agrave; jour votre adresse &eacute;lectronique",
			"flink3-link" : "https://merchant-channel.americanexpress.com/merchant/fr_FR/home",
			"terms-header" : "Voici quelques informations importantes",
			"terms-items" : [
				{
					"marker" : "1",
					"copy" : "D&eacute;finition des titulaires de la carte American Express&reg;&nbsp;: participants &agrave; l&rsquo;enqu&ecirc;te qui ont indiqu&eacute; d&eacute;tenir une carte American Express et qui l&rsquo;ont utilis&eacute;e pour effectuer des achats au cours des six (6) mois&nbsp;pr&eacute;c&eacute;dents."
				},
				{
					"marker" : "2",
					"copy" : "Source : American Express a commissionn&eacute; une enqu&ecirc;te internet men&eacute;e sur un panel de janvier&nbsp;2016 &agrave; mars&nbsp;2016, sur la base d&rsquo;achats effectu&eacute;s au cours des six (6) mois pr&eacute;c&eacute;dant&Nbsp;l&rsquo;enqu&ecirc;te."
				},
				{
					"marker" : "3",
					"copy" : "Le taux de commission de 1,9 % est propos&eacute; aux commer&ccedil;ants ind&eacute;pendants. Vous b&eacute;n&eacute;ficierez de ce nouveau taux tant que votre chiffre d&rsquo;affaires American Express sur 12 mois glissants ne d&eacute;passe pas 200&nbsp;000&euro;. Au-del&agrave; de cette limite, nous appliquerons le taux standard de votre secteur d&rsquo;activit&eacute;."
				},
				{
					"marker" : "&dagger;",
					"copy" : "Du lundi au vendredi, de 9h00 &agrave; 18h30. Pour vous identifier lors de vos appels, pensez &agrave; vous munir de votre num&eacute;ro commer&ccedil;ant American Express ainsi que de vos coordonn&eacute;es bancaires. Soyez pr&ecirc;t &agrave; r&eacute;pondre &agrave; des questions de s&eacute;curit&eacute; lorsque vous appelez un de nos&nbsp;repr&eacute;sentants."
				},
				{
					"marker" : "",
					"copy" : "American Express Payment Services Limited, Belgrave House, 76 Buckingham Palace Road, London, SW1W 9AX, Royaume -Uni. Soci&eacute;t&eacute; immatricul&eacute;e en Angleterre et au Pays de Galles sous le n&deg; 06301718. American Express Payment Services Limited est agr&eacute;&eacute;e par la &ldquo;Financial Conduct Authority&rdquo; en vertu de la r&eacute;glementation sur les services de paiement (&ldquo;Payment Services Regulations 2009&rdquo;) pour la fourniture de services de paiement (484347). Pour plus de simplicit&eacute;, vos courriers sont &agrave; adresser &agrave; notre succursale en France : American Express Payment Services Limited &ndash; 4 rue Louis Bl&eacute;riot &ndash; 92500 Rueil-Malmaison Cedex &ndash;&nbsp;France."
				},
				{
					"marker" : "",
					"copy" : "Clause de non-responsabilit&eacute; : Les marques d&eacute;pos&eacute;es mentionn&eacute;es aux pr&eacute;sentes restent la propri&eacute;t&eacute; de leur d&eacute;tenteur respectif."
				}
			]
		}
	]
}
