{
	"template" : "price-non-smp-non-sop.html",
	"language" : "en",
	"output" : "price-non-smp-non-sop-en.html",
	"languagecode" : "en",
	"subject" : "More reasons to say 'Yes' to American Express",
	"browserview" : {
		"text" : "Trouble viewing this email,  [[link]].",
		"links" : [
			{
				"linktext" : "view in browser",
				"link" : "http://ebm.email.americanexpress.com/c/tag/%%t%%/doc.html?t_sparams=%%t_sparams%%",
				"colour" : "ffffff"
			}
		]
	},
	"amexlink" : "https://merchant-channel.americanexpress.com/merchant/en_GB/home",
	"amexalt" : "American Express&reg;",
	"merchant" : "Merchant Number",
	"merchantnumber" : "&lt;XXXXXX&gt;",
	"modules" : [
		{
			"type" : "title",
			"text" : "More reasons to say <br class=\"mhide\">'Yes' to American&nbsp;<font style=\"white-space:nowrap;\">Express<sup class=\"supx1\">&reg;</sup></font>"
		},
		{
			"type" : "hero",
			"alt" : "More reasons to say 'Yes' to American Express&reg;",
			"img" : "img/en/yes3.png"
		},
		{
			"type" : "intro",
			"text" : "Saying &lsquo;Yes&rsquo; to American Express can make a real difference to your business. In fact UK American Express Cardmembers<sup class=\"supx1\">1</sup> report spending an average of <strong>50% more than UK Non-Cardmembers</strong><sup class=\"supx1\">2</sup> at small businesses in the prior&nbsp;month.<sup class=\"supx1\">3</sup><br><br>See the other ways saying ‘Yes' to American Express can help your&nbsp;business.",
			"bottommargin" : "yes"
		},
		{
			"type" : "submodules",
			"items" : [
				{
					"type" : "merchandise",
					"alt" : "American Express&reg;",
					"header" : "Order logos and supplies",
					"copy" : "Order complimentary signs and stickers to let your customers know you say &lsquo;Yes&rsquo; to American&nbsp;Express.",
					"linktext" : "Order Now.",
					"link" : "https://www209.americanexpress.com/merchant/marketing-data-intl/emea/en_GB/pages/home?section=pop"
				},
				{
					"type" : "onlineaccount",
					"alt" : "Online Account support",
					"header" : "Online Account support",
					"copy" : "All the tools to manage your Account online, plus instant online support whenever you need&nbsp;it.",
					"linktext" : "Login Now.",
					"link" : "https://www209.americanexpress.com/merchant/dashboard/en_GB/home?inav=gb_business_merch_home"
				}
			]
		},
		{
			"type" : "anyquestions",
			"header" : "Any questions?",
			"text" : "Call us on <a href=\"tel:08000327216\" style=\"color:#88d3e1;text-decoration:none;\">0800&nbsp;032&nbsp;72&nbsp;16</a><sup class=\"supx2\">&dagger;</sup> or visit our dedicated&nbsp;website.",
			"label" : "Find out more",
			"link" : "https://merchant-channel.americanexpress.com/merchant/en_GB/home?inav=gb_menu_business_merch_home"
		},
		{
			"type" : "footer",
			"flink1-text" : "Contact Customer Services",
			"flink1-link" : "https://www.americanexpress.com/uk/content/need-help/contact-us.html#content10",
			"flink2-text" : "View Privacy Statement",
			"flink2-link" : "https://www.americanexpress.com/uk/content/internet-privacy-statement.html?inav=gb_legalfooter_privacy",
			"flink3-text" : "Update email address",
			"flink3-link" : "https://www.americanexpress.com/uk/content/merchant/manage-your-account/online-merchant-services.html?inav=gb_business_merch_mngacct_mymchacct",
			"terms-header" : "Here's some important information.",
			"terms-items" : [
				{
					"marker" : "1",
					"copy" : "Definition of American Express<sup class=\"supx1\">&reg;</sup> Cardmembers: Respondents who reported that they have an American Express Card and that they used that card to make purchases in the prior&nbsp;6&nbsp;months."
				},
				{
					"marker" : "2",
					"copy" : "Definition of non-Cardmembers: Respondents who reported that they do not have any type of American Express Card and that they used Visa, MasterCard or any other credit card to make purchases in the prior&nbsp;6&nbsp;months."
				},
				{
					"marker" : "3",
					"copy" : "Source: American Express commissioned internet panel survey conducted in March - April 2017 based on purchases made in the 6 months prior to the&nbsp;survey."
				},
				{
					"marker" : "&dagger;",
					"copy" : "We're available 8am to 6pm, Monday to Friday, Saturdays and Bank Holidays (excluding Christmas Day and New Year’s Day), 9am to 5pm. Because we want to make sure we're doing a good job, we may monitor or record our&nbsp;calls."
				},
				{
					"marker" : "",
					"copy" : "American Express Payment Services Limited. Registered Office: Belgrave House, 76 Buckingham Palace Road, London, SW1W 9AX. Registered in England and Wales with Number 06301718. American Express Payment Services Limited is authorised in the United Kingdom by the Financial Conduct Authority under the Payment Services Regulations 2009 (reference number 484347) for the provision of payment&nbsp;services."
				},
				{
					"marker" : "",
					"copy" : "Disclaimer: The trademarks used herein are the property of their respective&nbsp;owners."
				},
				{
					"marker" : "",
					"copy" : "Please do not reply to this email, it was sent from an unmonitored email address. This email is intended for American Express customers and was sent to %%EMAIL%%. If you received this email at a different email address, this email message was&nbsp;forwarded."
				}
			]
		}
	]
}