{
	"template" : "price-non-smp-sop.html",
	"language" : "fr",
	"output" : "price-non-smp-sop-fr.html",
	"languagecode" : "fr",
	"subject" : "Plusieurs raisons de dire &quot;Oui&quot; &agrave; American Express",
	"browserview" : {
		"text" : "Cet email ne s'affiche pas correctement ? [[link]]",
		"links" : [
			{
				"linktext" : "Consultez-le dans le navigateur",
				"link" : "http://ebm.email.americanexpress.com/c/tag/%%t%%/doc.html?t_sparams=%%t_sparams%%",
				"colour" : "ffffff"
			}
		]
	},
	"amexlink" : "https://merchant-channel.americanexpress.com/merchant/fr_FR/home",
	"amexalt" : "American Express&reg;",
	"merchant" : "Num&eacute;ro commer&ccedil;ant",
	"merchantnumber" : "&lt;XXXXXX&gt;",
	"modules" : [
		{
			"type" : "title",
			"text" : "Plusieurs raisons de dire &quot;Oui&quot; &agrave; American Express<sup class=\"sup\">&reg;</sup>"
		},
		{
			"type" : "hero",
			"alt" : "Plusieurs raisons de dire &quot;Oui&quot; &agrave; American Express",
			"img" : "img/fr/yes3.png"
		},
		{
			"type" : "intro",
			"text" : "Le saviez-vous ?<br><br>Les Fran&ccedil;ais titulaires d&rsquo;une carte American Express indiquent d&eacute;penser en moyenne<sup class=\"supx1\">2</sup>,<sup class=\"supx1\">1</sup>&nbsp;fois plus que les Fran&ccedil;ais non-titulaires d&rsquo;une carte American Express, toutes cartes de cr&eacute;dit confondues, durant un mois typique.<br><br>D&eacute;couvrez les autres raisons pour lesquelles dire &quot;Oui&quot; &agrave; American Express peut aider votre&nbsp;activit&eacute;.",
			"bottommargin" : "yes"
		},
		{
			"type" : "submodules",
			"items" : [
				{
					"type" : "speedy",
					"img" : "img/fr/speedy.png",
					"alt" : "&euro;",
					"header" : "Paiement en 2 jours",
					"copy" : "Vous b&eacute;n&eacute;ficiez aujourd'hui d'une vitesse de paiement qui a &eacute;t&eacute; r&eacute;duite &agrave; 2&nbsp;jours."
				},
				{
					"type" : "merchandise",
					"alt" : "American Express&reg;",
					"header" : "Commandez gratuitement votre signal&eacute;tique",
					"copy" : "Pensez &agrave; afficher le logo American Express pour attirer plus de&nbsp;titulaires.",
					"linktext" : "Commandez d&egrave;s maintenant",
					"link" : "https://www.americanexpress.com/fr/content/merchant/marketing/supplies.html?inav=fr_company_merchant_yourcus_supplies"
				},
				{
					"type" : "onlineaccount",
					"alt" : "G&eacute;rez votre compte en ligne",
					"header" : "G&eacute;rez votre compte en ligne",
					"copy" : "Retrouvez tous les outils vous permettant de g&eacute;rer votre compte en ligne ainsi qu'une assistance en ligne  d&egrave;s que vous en avez&nbsp;besoin.",
					"linktext" : "Connectez-vous d&egrave;s maintenant",
					"link" : "https://merchant-channel.americanexpress.com/merchant/fr_FR/home"
				}
			]
		},
		{
			"type" : "anyquestions",
			"header" : "Des questions?",
			"text" : "Contactez notre service client&egrave;le au <a href=\"tel:0147777575\" style=\"color:#88d3e1;text-decoration:none;\">01&nbsp;47&nbsp;77&nbsp;75&nbsp;75</a><sup class=\"supx2\">&dagger;</sup> ou visitez notre site internet&nbsp;d&eacute;di&eacute;.",
			"label" : "En savoir plus",
			"link" : "https://merchant-channel.americanexpress.com/merchant/fr_FR/home"
		},
		{
			"type" : "footer",
			"flink1-text" : "Contacter le service client&egrave;le",
			"flink1-link" : "https://www.americanexpress.com/fr/content/contact.html?inav=fr_sitefooter_contact_pr",
			"flink2-text" : "Consulter la d&eacute;claration de confidentialit&eacute;",
			"flink2-link" : "https://www.americanexpress.com/fr/content/privacy.html?inav=fr_legalfooter_privacy",
			"flink3-text" : "Mettre &agrave; jour votre adresse &eacute;lectronique",
			"flink3-link" : "https://merchant-channel.americanexpress.com/merchant/fr_FR/home",
			"terms-header" : "Voici quelques informations importantes",
			"terms-items" : [
				{
					"marker" : "1",
					"copy" : "D&eacute;finition des titulaires de la carte American Express&reg;&nbsp;: participants &agrave; l&rsquo;enqu&ecirc;te qui ont indiqu&eacute; d&eacute;tenir une carte American Express et qui l&rsquo;ont utilis&eacute;e pour effectuer des achats au cours des six (6) mois&nbsp;pr&eacute;c&eacute;dents."
				},
				{
					"marker" : "2",
					"copy" : "D&eacute;finition des non-titulaires de la carte&nbsp;: participants &agrave; l&rsquo;enqu&ecirc;te qui ont indiqu&eacute; ne d&eacute;tenir aucun type de carte American Express et avoir utilis&eacute; une carte Visa ou MasterCard, ou toute autre carte de paiement, pour effectuer des achats au cours des six (6)&nbsp;mois "
				},
				{
					"marker" : "3",
					"copy" : "Source : American Express a commissionn&eacute; une enqu&ecirc;te internet men&eacute;e sur un panel de janvier&nbsp;2016 &agrave; mars&nbsp;2016, sur la base d&rsquo;achats effectu&eacute;s au cours des six (6) mois pr&eacute;c&eacute;dant&nbsp;l&rsquo;enqu&ecirc;te."
				},
				{
					"marker" : "&dagger;",
					"copy" : "Du lundi au vendredi, de 9h00 &agrave; 18h30. Pour vous identifier lors de vos appels, pensez &agrave; vous munir de votre num&eacute;ro commer&ccedil;ant American Express ainsi que de vos coordonn&eacute;es bancaires. Soyez pr&ecirc;t &agrave; r&eacute;pondre &agrave; des questions de s&eacute;curit&eacute; lorsque vous appelez un de nos&nbsp;repr&eacute;sentants."
				},
				{
					"marker" : "",
					"copy" : "American Express Payment Services Limited, Belgrave House, 76 Buckingham Palace Road, London, SW1W 9AX, Royaume -Uni. Soci&eacute;t&eacute; immatricul&eacute;e en Angleterre et au Pays de Galles sous le n&deg; 06301718. American Express Payment Services Limited est agr&eacute;&eacute;e par la &ldquo;Financial Conduct Authority&rdquo; en vertu de la r&eacute;glementation sur les services de paiement (&ldquo;Payment Services Regulations 2009&rdquo;) pour la fourniture de services de paiement (484347). Pour plus de simplicit&eacute;, vos courriers sont &agrave; adresser &agrave; notre succursale en France : American Express Payment Services Limited &ndash; 4 rue Louis Bl&eacute;riot &ndash; 92500 Rueil-Malmaison Cedex &ndash;&nbsp;France."
				},
				{
					"marker" : "",
					"copy" : "Clause de non-responsabilit&eacute; : Les marques d&eacute;pos&eacute;es mentionn&eacute;es aux pr&eacute;sentes restent la propri&eacute;t&eacute; de leur d&eacute;tenteur respectif."
				},
				{
				  "marker" : "",
				  "copy" : "Notez que nous ne sommes pas en mesure de r&eacute;pondre &agrave; quelque question que ce soit par retour de cet e-mail. Cet e-mail a &eacute;t&eacute; adress&eacute; &agrave; %%EMAIL%%. Si vous l&rsquo;avez re&ccedil;u &agrave; une adresse, le message vous a &eacute;t&eacute; re-transmis. Cette offre est destin&eacute;e &agrave; des adresses en France uniquement."
				}
			]
		}
	]
}