{
	"template" : "security-policy-smp.html",
	"language" : "en",
	"output" : "security-policy-smp-en.html",
	"languagecode" : "en",
	"subject" : "We're here, whatever you need",
	"browserview" : {
		"text" : "Trouble viewing this email,  [[link]].",
		"links" : [
			{
				"linktext" : "view in browser",
				"link" : "http://ebm.email.americanexpress.com/c/tag/%%t%%/doc.html?t_sparams=%%t_sparams%%",
				"colour" : "ffffff"
			}
		]
	},
	"amexlink" : "https://merchant-channel.americanexpress.com/merchant/en_GB/home",
	"amexalt" : "American Express&reg;",
	"merchant" : "Merchant Number",
	"merchantnumber" : "&lt;XXXXXX&gt;",
	"modules" : [
		{
			"type" : "title",
			"text" : "Another reason to say 'Yes' to American <font style=\"white-space:nowrap;\">Express<sup class=\"supx1\">&reg;</sup></font> - we're always here to help"
		},
		{
			"type" : "hero",
			"alt" : "Another reason to say 'Yes' to American Express&reg; - we're always here to help",
			"img" : "img/en/yes3.png"
		},
		{
			"type" : "intro",
			"text" : "Disputes may occur from time to time when a Cardmember notifies American Express about a charge on their statement they don't recognise or need further information for. As an American Express Merchant, you can manage Disputes through your online&nbsp;Account.",
			"bottommargin" : "no"
		},
		{
			"type" : "order1",
			"label" : "Find Out More",
			"link" : "https://www.americanexpress.com/uk/content/merchant/dispute-charges-and-fraud.html?inav=gb_business_merch_paymnts_dispute"
		},
		{
			"type" : "follower",
			"text" : "Here are a few more reasons to say 'Yes' to American Express."
		},
		{
			"type" : "submodules",
			"items" : [
				{
					"type" : "onepointnine",
					"img" : "img/en/onepointnine.png",
					"alt" : "Your rate is 1.9%",
					"header" : "Your rate is 1.9%<sup class=\"sup\">1</sup>",
					"copy" : "You are on a rate of 1.9% - which applies to all our Cards. And we’ll never charge you for terminal processing or statements either."
				},
				{
					"type" : "merchandise",
					"alt" : "American Express&reg;",
					"header" : "Order logos and merchandise",
					"copy" : "Order complimentary signs and stickers to let your customers know you say &lsquo;Yes&rsquo; to American&nbsp;Express.",
					"linktext" : "Order Now.",
					"link" : "https://www209.americanexpress.com/merchant/marketing-data-intl/emea/en_GB/pages/home?section=pop"
				},
				{
					"type" : "onlineaccount",
					"alt" : "Online Account support",
					"header" : "Online Account support",
					"copy" : "All the tools to manage your Account online, plus instant online support whenever you need&nbsp;it.",
					"linktext" : "Login Now.",
					"link" : "https://www209.americanexpress.com/merchant/dashboard/en_GB/home?inav=gb_business_merch_home"
				}
			]
		},
		{
			"type" : "anyquestions",
			"header" : "Any questions?",
			"text" : "Call us on <a href=\"tel:08000327216\" style=\"color:#88d3e1;text-decoration:none;\">0800&nbsp;032&nbsp;72&nbsp;16</a><sup class=\"supx2\">&dagger;</sup> or visit our dedicated&nbsp;website.",
			"label" : "Find out more",
			"link" : "https://merchant-channel.americanexpress.com/merchant/en_GB/home?inav=gb_menu_business_merch_home"
		},
		{
			"type" : "footer",
			"flink1-text" : "Contact Customer Services",
			"flink1-link" : "https://www.americanexpress.com/uk/content/need-help/contact-us.html#content10",
			"flink2-text" : "View Privacy Statement",
			"flink2-link" : "https://www.americanexpress.com/uk/content/internet-privacy-statement.html?inav=gb_legalfooter_privacy",
			"flink3-text" : "Update email address",
			"flink3-link" : "https://www.americanexpress.com/uk/content/merchant/manage-your-account/online-merchant-services.html?inav=gb_business_merch_mngacct_mymchacct",
			"terms-header" : "Here's some important information.",
			"terms-items" : [
				{
					"marker" : "1",
					"copy" : "The 1.9% Discount Rate is available to small merchants with annual American Express Charges of up to &pound;100,000. If your business exceeds this, we may amend your Discount Rate in accordance with your Terms and Conditions for American Express Cards&nbsp;Acceptance."
				},
				{
					"marker" : "&dagger;",
					"copy" : "We're available 8am to 6pm, Monday to Friday, Saturdays and Bank Holidays (excluding Christmas Day and New Year’s Day), 9am to 5pm. Because we want to make sure we're doing a good job, we may monitor or record our&nbsp;calls."
				},
				{
					"marker" : "",
					"copy" : "American Express Payment Services Limited. Registered Office: Belgrave House, 76 Buckingham Palace Road, London, SW1W 9AX. Registered in England and Wales with Number 06301718. American Express Payment Services Limited is authorised in the United Kingdom by the Financial Conduct Authority under the Payment Services Regulations 2009 (reference number 484347) for the provision of payment&nbsp;services."
				},
				{
					"marker" : "",
					"copy" : "Disclaimer: The trademarks used herein are the property of their respective&nbsp;owners."
				},
				{
					"marker" : "",
					"copy" : "Please do not reply to this email, it was sent from an unmonitored email address. This email is intended for American Express customers and was sent to %%EMAIL%%. If you received this email at a different email address, this email message was&nbsp;forwarded."
				}
			]
		}
	]

}
