{
	"template" : "welcome-smp.html",
	"language" : "en",
	"output" : "welcome-smp-en.html",
	"languagecode" : "en",
	"subject" : "SUBJECT",
	"browserview" : {
		"text" : "Trouble viewing this email, [[link]].",
		"links" : [
			{
				"linktext" : "view in browser",
				"link" : "http://ebm.email.americanexpress.com/c/tag/%%t%%/doc.html?t_sparams=%%t_sparams%%",
				"colour" : "ffffff"
			}
		]
	},
	"amexlink" : "https://merchant-channel.americanexpress.com/merchant/en_GB/home",
	"amexalt" : "American Express&reg;",
	"merchant" : "Merchant Number",
	"merchantnumber" : "&lt;XXXXXX&gt;",
	"modules" : [
		{
			"type" : "title",
			"text" : "Here is what saying &lsquo;Yes&rsquo; <br class=\"mhide\">means for your business"
		},
		{
			"type" : "hero",
			"alt" : "Here is what saying &lsquo;Yes&rsquo; means for your business",
			"img" : "img/en/yes6.png"
		},
		{
			"type" : "intro",
			"text" : "Dear Merchant,<br><br>Welcome to American Express<sup>&reg;</sup>. Now you can accept our Cards and are part of the American Express Network. That means you have access to customers, tools and resources that can help you manage your Account day-to-day and grow your business.<br><br>You’ll also be benefiting from our flat Discount Rate of 1.9%<sup>1</sup> for all American Express Cards. We don’t charge any terminal processing or statement fees, so the Discount Rate is all you’ll have to pay to accept our Cards.<br><br>Yours sincerely,",
			"bottommargin" : "no"
		},
		{
			"type" : "signature",
			"text" : "Werner Decker,<br>Senior Vice President, <br>Head of Global Merchant Services Europe"
		},
		{
			"type" : "submodules",
			"items" : [
				{
					"type" : "gettingstarted",
					"alt" : "Download our Getting Started Guide",
					"header" : "Download our Getting Started Guide",
					"copy" : "Find out more about the benefits of accepting American Express and what you need to do to start accepting our Cards. [[link]].",
					"links" : [
						{
							"linktext" : "Download here",
							"link" : "http://www.americanexpress.com/uk/getting-started",
							"colour" : "000"
						}
					]
				},
				{
					"type" : "threesteps",
					"alt" : "In the meantime, here’s a summary of the three simple steps you’ll need to take",
					"header" : "In the meantime, here’s a summary of the three simple steps you’ll need to take",
					"items" : [
						{
							"number" : "1.",
							"text" : "Make sure your terminal is ready by checking that American Express is displayed as a card scheme on your end of day reconciliation print-out. If American Express is not displayed please contact your terminal provider to help you set it up correctly. There is also more information on how to test your terminal [[link]].",
							"links" : [
								{
									"linktext" : "here",
									"link" : "https://merchant-channel.americanexpress.com/merchant/en_GB/getting-started?section=one#",
									"colour" : "000000"
								}
							]
						},
						{
							"number" : "",
							"text" : "If you are an online merchant your software may have been automatically set up or you may need to follow a few steps to make sure you are ready to accept American Express Cards. Simply give your provider a quick call or follow the instructions they have you to make sure you get set up straight away.",
							"links" : []
						},
						{
							"number" : "2.",
							"text" : "You should shortly receive your window stickers, which will let Cardmembers know that you accept American Express. You can download a digital version for your website [[link]].",
							"links" : [
								{
									"linktext" : "here",
									"link" : "https://www209.americanexpress.com/merchant/marketing-data-intl/emea/en_GB/pages/home?section=pop",
									"colour" : "000000"
								}
							]
						},
						{
							"number" : "3.",
							"text" : "Register your Merchant Account [[link]] and check your Account details are all correct, if you spot a mistake please let us know as soon as possible. From here you can also access your statements, view daily transactions and pending payments, receive alerts and notifications and track and resolve disputes.",
							"links" : [
								{
									"linktext" : "online",
									"link" : "https://www209.americanexpress.com/merchant/dashboard/en_GB/home?inav=gb_business_merch_home",
									"colour" : "000000"
								}
							]
						}
					]
				},
				{
					"type" : "didyouknow",
					"alt" : "Did you know?",
					"header" : "Did you know?",
					"copy" : "UK American Express Cardmembers<sup>2</sup> report spending on average 2.0 times more than UK Non-Cardmembers<sup>3</sup> for personal purchases on all credit cards in a typical month. So, by saying &lsquo;Yes&rsquo; you’re not only giving your customers the flexibility to pay how they want, you may also drive increased revenue for your business<sup>4</sup>."
				}
			]
		},
		{
			"type" : "anyquestions",
			"header" : "Any questions?",
			"text" : "Call us on <a href=\"tel:08000327216\" style=\"color:#88d3e1;text-decoration:none;\">0800&nbsp;032&nbsp;72&nbsp;16</a><sup class=\"supx2\">&dagger;</sup> or visit our dedicated&nbsp;website.",
			"label" : "Find out more",
			"link" : "https://merchant-channel.americanexpress.com/merchant/en_GB/home?inav=gb_menu_business_merch_home"
		},
		{
			"type" : "footer",
			"flink1-text" : "Contact Customer Services",
			"flink1-link" : "https://www.americanexpress.com/uk/content/need-help/contact-us.html#content10",
			"flink2-text" : "View Privacy Statement",
			"flink2-link" : "https://www.americanexpress.com/uk/content/internet-privacy-statement.html?inav=gb_legalfooter_privacy",
			"flink3-text" : "Update email address",
			"flink3-link" : "https://www.americanexpress.com/uk/content/merchant/manage-your-account/online-merchant-services.html?inav=gb_business_merch_mngacct_mymchacct",
			"terms-header" : "Here's some important information.",
			"terms-items" : [
				{
					"marker" : "1",
					"copy" : "The 1.9% Discount Rate is available to small merchants with annual American Express Charges of up to £100,000. If your business exceeds this, we may amend your Discount Rate in accordance with your Terms and Conditions for American Express Cards Acceptance."
				},
				{
					"marker" : "2",
					"copy" : "Definition of American Express Cardmembers: Respondents who reported that they have an American Express Card and that they used that card to make purchases in the prior 6 months."
				},
				{
					"marker" : "3",
					"copy" : "Definition of non-Cardmembers: Respondents who reported that they do not have any type of American Express Card and that they used Visa, MasterCard or any other credit card to make purchases in the prior 6 months."
				},
				{
					"marker" : "4",
					"copy" : "Source: American Express commissioned internet panel survey conducted in March - April 2017 based on purchases made in the 6 months prior to the survey."
				},
				{
					"marker" : "&dagger;",
					"copy" : "We're available 8am to 6pm, Monday to Friday, Saturdays and Bank Holidays (excluding Christmas Day and New Year’s Day), 9am to 5pm. Because we want to make sure we're doing a good job, we may monitor or record our&nbsp;calls."
				},
				{
					"marker" : "",
					"copy" : "American Express Payment Services Limited. Registered Office: Belgrave House, 76 Buckingham Palace Road, London, SW1W 9AX. Registered in England and Wales with Number 06301718. American Express Payment Services Limited is authorised in the United Kingdom by the Financial Conduct Authority under the Payment Services Regulations 2009 (reference number 484347) for the provision of payment&nbsp;services."
				},
				{
					"marker" : "",
					"copy" : "Disclaimer: The trademarks used herein are the property of their respective&nbsp;owners."
				},
				{
					"marker" : "",
					"copy" : "Please do not reply to this email, it was sent from an unmonitored email address. This email is intended for American Express customers and was sent to %%EMAIL%%. If you received this email at a different email address, this email message was&nbsp;forwarded."
				}
			]
		}
	]
}
