{
	"template" : "welcome-smp.html",
	"language" : "fi",
	"output" : "welcome-smp-fi.html",
	"languagecode" : "fi",
	"subject" : "Kiitos, ett&auml; sanot &ldquo;Kyll&auml;&rdquo; American Express&reg; &ndash;kortille",
	"browserview" : {
		"text" : "Jos et n&auml;e viestin sis&auml;lt&ouml;&auml;, [[link]].",
		"links" : [
			{
				"linktext" : "klikkaa t&auml;st&auml;",
				"link" : "http://ebm.email.americanexpress.com/c/tag/%%t%%/doc.html?t_sparams=%%t_sparams%%",
				"colour" : "ffffff"
			}
		]
	},
	"amexlink" : "https:/https://www.americanexpress.com/fi/fi/content/merchant/online-merchant-services.html?extlink=va-mer-americanexpress-fi-liikepalvelutonline",
	"amexalt" : "American Express&reg;",
	"merchant" : "J&auml;senliikenumero",
	"merchantnumber" : "&lt;XXXXXX&gt;",
	"modules" : [
		{
			"type" : "title",
			"text" : "Kiitos, ett&auml; sanot &ldquo;Kyll&auml;&rdquo; American <font style=\"white-space:nowrap;\">Express<sup class=\"supx1\">&reg;</sup></font> &ndash;kortille"
		},
		{
			"type" : "hero",
			"alt" : "Kiitos, ett&auml; sanot &ldquo;Kyll&auml;&rdquo; American Express&reg; &ndash;kortille",
			"img" : "img/fi/yes6.png"
		},
		{
			"type" : "intro",
			"text" : "Tervetuloa American Expressille. Nyt kun hyv&auml;ksyt American Express -kortin maksuv&auml;lineeksi, p&auml;&auml;set hy&ouml;dynt&auml;m&auml;&auml;n verkostoamme ja tavoitat kortinhaltijamme. Saat k&auml;ytt&ouml;&ouml;si useita k&auml;tevi&auml; verkkoty&ouml;kaluja ja lis&auml;ksi saat vinkkej&auml; sek&auml; tietoa siit&auml;, miten voit kasvattaa liiketoimintaasi ja toivottaa uudet asiakkaat&nbsp;tervetulleiksi.<br><br>American Express -korttien palvelupalkkio on vain 1,5 %. Emme peri maksutapahtumista muita maksuja, joten 1,5 % on ainoa kulusi hyv&auml;ksyess&auml;si American Express -kortin&nbsp;maksuv&auml;lineeksi.",
			"bottommargin" : "yes"
		},
		{
			"type" : "submodules",
			"items" : [
				{
					"type" : "gettingstarted",
					"alt" : "Aloitusopas",
					"header" : "Aloitusopas",
					"copy" : "Lataa sivustoltamme [[link]], josta selvi&auml;&auml; kaikki ne edut jotka saat, kun hyv&auml;ksyt American Express -kortin maksuv&auml;lineeksi. Saat my&ouml;s ohjeet siit&auml;, kuinka sinun tulee toimia, jotta voit alkaa vastaanottaa&nbsp;korttejamme.",
					"links" : [
						{
							"linktext" : "Aloitusopas",
							"link" : "https://www.americanexpress.com/fi/fi/content/merchant/pdf/becoming-a-merchant/FIN-Welcome-Pack.pdf",
							"colour" : "000"
						}
					]
				},
				{
					"type" : "threesteps",
					"alt" : "T&auml;ss&auml; yhteenveto kolmena yksinkertaisena vaiheena.",
					"header" : "T&auml;ss&auml; yhteenveto kolmena yksinkertaisena vaiheena.",
					"items" : [
						{
							"number" : "1.",
							"text" : "Tarkista, ett&auml; maksup&auml;&auml;tteesi voi ottaa vastaan American Express -kortilla teht&auml;vi&auml; maksutapahtumia. Ota yhteytt&auml; maksutapahtumien v&auml;litt&auml;j&auml;&auml;si ja/tai maksup&auml;&auml;te- toimittajaasi saadaksesi ohjeet sit&auml;&nbsp;varten.",
							"links" : []
						},
						{
							"number" : "2.",
							"text" : "Saat piakkoin ikkunatarran, josta kortinhaltijat n&auml;kev&auml;t, ett&auml; hyv&auml;ksyt American Express -kortin maksuv&auml;lineeksi. Voit ladata tarran s&auml;hk&ouml;isen version verkko-sivustollesi&nbsp;[[link]].",
							"links" : [
								{
									"linktext" : "t&auml;&auml;lt&auml;",
									"link" : "https://merchant-supplies.americanexpress.com/?locale=fi_FI#/",
									"colour" : "000000"
								}
							]
						},
						{
							"number" : "3.",
							"text" : "Rekister&ouml;idy Liikepalvelut Online -palveluun [[link]] ja tarkista, ett&auml; tilisi tiedot ovat oikein. Jos l&ouml;yd&auml;t jotakin huomautettavaa, ota meihin yhteytt&auml; mahdollisimman nopeasti. Verkkopalvelussa n&auml;et my&ouml;s tiliotteet, p&auml;ivitt&auml;iset maksutapahtumat ja avoimet maksut sek&auml; voit vastaanottaa muistutuksia ja tiedotteita. Palvelussa voit my&ouml;s seurata ja hallinnoida ep&auml;selvi&auml;&nbsp;maksutapahtumia.",
							"links" : [
								{
									"linktext" : "verkossa",
									"link" : "https://www.americanexpress.com/fi/fi/content/merchant/online-merchant-services.html?extlink=va-mer-americanexpress-fi-liikepalvelutonline",
									"colour" : "000000"
								}
							]
						}
					]
				},
				{
					"type" : "didyouknow",
					"alt" : "Tiesitk&ouml;?",
					"header" : "Tiesitk&ouml;?",
					"copy" : "Vuonna 2015 paikallisten ja kansainv&auml;listen American Express -kortinhaltijoiden maksujen kokonaism&auml;&auml;r&auml; kasvoi Suomessa 7 % vuoteen 2014 verrattuna.* Sanomalla &ldquo;Kyll&auml;&rdquo; et ainoastaan tarjoa asiakkaillesi mahdollisuutta maksaa heid&auml;n haluamallaan tavalla, vaan kasvatat samalla my&ouml;s liiketoimintasi&nbsp;tuottoja"
				}
			]
		},
		{
			"type" : "anyquestions",
			"header" : "Any questions?",
			"text" : "Lis&auml;tietoa saat verkkosivustoltamme <a href=\"http://www.americanexpress.fi/liikepalvelut\" target=\"_blank\" style=\"color:#88d3e1;text-decoration:none;\">www.americanexpress.fi/liikepalvelut</a> tai soittamalla meille numeroon 09&nbsp;6132&nbsp;0420.<sup class=\"sup\">&dagger;</sup>",
			"label" : "Siirry sivustolle",
			"link" : "https://merchant-channel.americanexpress.com/merchant/fi_FI/home"
		},
		{
			"type" : "footer",
			"flink1-text" : "Ota yhteytt&auml; Liikepalveluihin",
			"flink1-link" : "https://merchant-channel.americanexpress.com/merchant/fi_FI/home",
			"flink2-text" : "Yksityisyydensuoja",
			"flink2-link" : "https://www.americanexpress.com/fi/fi/content/internet-privacy-policy.html?inav=fi_legalfooter_privacy",
			"flink3-text" : "P&auml;ivit&auml; s&auml;hk&ouml;postiosoite",
			"flink3-link" : "https://merchant-channel.americanexpress.com/merchant/fi_FI/home",
			"terms-header" : "&nbsp;",
			"terms-items" : [
				{
					"marker" : "*",
					"copy" : "L&auml;hde: Tiedot American Expressilt&auml;. Kansainv&auml;lisill&auml; kortinhaltijoilla (mukaan lukien USA) tarkoitetaan muita kuin suomalaisia, Suomessa vuonna 2015 American Express -kortillaan maksaneita kortinhaltijoita. Euroopan tietoihin kuuluvat seuraavat maat: Iso-Britannia, Italia, Ranska, Saksa, Espanja, Alankomaat, Ruotsi, Suomi ja It&auml;valta. Kansainv&auml;liset maksut k&auml;sitt&auml;v&auml;t sek&auml; verkossa ett&auml; liikkeiss&auml; tehdyt&nbsp;korttimaksut."
				},
				{
					"marker" : "",
					"copy" : "Erottamislausuma: T&auml;ss&auml; mainitut tavaramerkit ovat omistajiensa&nbsp;omaisuutta."
				},
				{
					"marker" : "&dagger;",
					"copy" : "Liikepalvelut puh. 09 6132 0420 palvelee maanantaista torstaihin klo 9-17 ja perjantaisin klo 9-16. Jos sinulla on kysytt&auml;v&auml;&auml; maksup&auml;&auml;tteest&auml;si, ota yhteytt&auml; maksup&auml;&auml;tetoimittajaasi. Tilivarmennukset puh. 0800 114 646."
				},
				{
					"marker" : "",
					"copy" : "American Express Payment Services Limited. Registered Office: Belgrave House, 76 Buckingham Palace Road, London SW1W 9AX. Registered in England and Wales with Number 06301718. American Express Payment Services Limited is authorised in the United Kingdom by the Financial Conduct Authority under the Payment Services Regulations 2009 (reference number 484347) for the provision of payment&nbsp;services."
				},
				{
					"marker" : "",
					"copy" : "&copy; American Express Companyn rekister&ouml;ity tavaramerkki 2017. Kaikki oikeudet pid&auml;tet&auml;&auml;n."
				}
			]
		}
	]
}
