{
	"template" : "welcome-non-smp.html",
	"language" : "es",
	"output" : "welcome-non-smp-es.html",
	"languagecode" : "es",
	"subject" : "Bienvenido a todo lo que tenemos que ofrecerle",
	"browserview" : {
		"text" : "Si tiene problemas para ver este email, [[link]].",
		"links" : [
			{
				"linktext" : "mostrar en navegador",
				"link" : "http://ebm.email.americanexpress.com/c/tag/%%t%%/doc.html?t_sparams=%%t_sparams%%",
				"colour" : "ffffff"
			}
		]
	},
	"amexlink" : "https://americanexpress.es/establecimientos",
	"amexalt" : "American Express&reg;",
	"merchant" : "N&uacute;mero de Establecimiento American Express",
	"merchantnumber" : "&lt;XXXXXX&gt;",
	"modules" : [
		{
			"type" : "title",
			"text" : "A continuaci&oacute;n encontrar&aacute; lo que decir &quot;S&Iacute;&quot; significa para su negocio"
		},
		{
			"type" : "hero",
			"alt" : "A continuaci&oacute;n encontrar&aacute; lo que decir &quot;S&Iacute;&quot; significa para su negocio",
			"img" : "img/es/yes6.png"
		},
		{
			"type" : "intro",
			"text" : "Estimado Colaborador,<br><br>Bienvenido a American Express. Gracias por aceptar nuestras Tarjetas y formar parte de nuestra red. Ahora podr&aacute; acceder a nuevos clientes, recursos y herramientas que le ayudar&aacute;n a hacer crecer su&nbsp;negocio.",
			"bottommargin" : "no"
		},
		{
			"type" : "signature",
			"text" : "Werner Decker,<br>Senior Vice President, <br>Head of Global Merchant Services Europe"
		},
		{
			"type" : "submodules",
			"items" : [
				{
					"type" : "gettingstarted",
					"alt" : "Gu&iacute;a de inicio",
					"header" : "Gu&iacute;a de inicio",
					"copy" : "Desc&aacute;rguese nuestra [[link]] para conocer las ventajas de aceptar American Express y todo lo que debe hacer para empezar a aceptar nuestras Tarjetas.",
					"links" : [
						{
							"linktext" : "Gu&iacute;a de inicio",
							"link" : "http://www.americanexpress.com/uk/getting-started",
							"colour" : "000"
						}
					]
				},
				{
					"type" : "threesteps",
					"alt" : "Mientras tanto, aqu&iacute; tiene un resumen con tres sencillos pasos que deber&aacute; realizar.",
					"header" : "Mientras tanto, aqu&iacute; tiene un resumen con tres sencillos pasos que deber&aacute; realizar.",
					"items" : [
						{
							"number" : "1.",
							"text" : "Su terminal para punto de venta ya deber&iacute;a estar conectado para operar con Tarjetas American Express. Si al realizar una transacci&oacute;n recibiera alg&uacute;n mensaje de error por favor, p&oacute;ngase en contacto con el Servicio de Atenci&oacute;n a Establecimientos en el 902&nbsp;100&nbsp;956 de 9:30 a 20:00h de lunes a viernes para subsanarlo. As&iacute; mismo, cada vez que cambie su cuenta bancaria o n&uacute;mero de Establecimiento, por favor recuerde llamarnos al mismo n&uacute;mero para realizar la actualizaci&oacute;n..",
							"links" : []
						},
						{
							"number" : "",
							"text" : "Si tiene un Establecimiento online puede que su software ya haya sido configurado autom&aacute;ticamente, o tal vez deba seguir una serie de pasos para saber si puede aceptar Tarjetas American Express. En caso de duda, p&oacute;ngase en contacto con su proveedor de servicios de&nbsp;pago.",
							"links" : []
						},
						{
							"number" : "2.",
							"text" : "En breve recibir&aacute; un adhesivo que podr&aacute; colocar en el escaparate de su Establecimiento. Si desea solicitar m&aacute;s adhesivos o distintivos, o descargar la versi&oacute;n digital de nuestro logo para su p&aacute;gina web, haga clic [[link]]. Utilice nuestros adhesivos y materiales para punto de venta gratuitos para comunicar a sus clientes que ahora ya acepta Tarjetas American Express.",
							"links" : [
								{
									"linktext" : "aqu&iacute;",
									"link" : "https://merchant-supplies.americanexpress.com/?locale=es_ES#/",
									"colour" : "000000"
								}
							]
						},
						{
							"number" : "3.",
							"text" : "Registre su Cuenta de Establecimiento [[link]] y utilice nuestras herramientas online gratuitas para ver sus liquidaciones y pagos, gestionar reclamaciones (o cargos en disputa) y actualizar los datos de su cuenta. Todo ello en una ubicaci&oacute;n segura y accesible las 24 horas del d&iacute;a, los 7 d&iacute;as de la semana. Tambi&eacute;n puede suscribirse para recibir estados de cuenta y notificaciones por v&iacute;a electr&oacute;nica.",
							"links" : [
								{
									"linktext" : "online",
									"link" : "https://www209.americanexpress.com/merchant/dashboard/es_ES/home",
									"colour" : "000000"
								}
							]
						}
					]
				},
				{
					"type" : "didyouknow",
					"alt" : "&iquest;Sab&iacute;a que...?",
					"header" : "&iquest;Sab&iacute;a que...?",
					"copy" : "Los Titulares American Express espa&ntilde;oles declaran que realizan un gasto medio de 1.626 &euro; con todas las tarjetas de cr&eacute;dito en un mes normal, frente a los 776 &euro; de media de gasto declarada por los titulares espa&ntilde;oles de otras tarjetas.* Al decir &ldquo;SI&rdquo; a American Express no s&oacute;lo ofrece a sus clientes la flexibilidad de pagar como prefieran, sino que tambi&eacute;n puede hacer crecer su negocio."
				}
			]
		},
		{
			"type" : "anyquestions",
			"header" : "&iquest;Alguna pregunta?",
			"text" : "Contacte con nosotros en el  <a href=\"tel:902100956\" style=\"color:#88d3e1;text-decoration:none;\">902&nbsp;100&nbsp;956</a><sup class=\"supx2\">&dagger;</sup> o visite nuestro sitio web para Establecimientos",
			"label" : "Conocer m&aacute;s",
			"link" : "https://www209.americanexpress.com/merchant/dashboard/es_ES/home"
		},
		{
			"type" : "footer",
			"flink1-text" : "Contacte con nosotros",
			"flink1-link" : "https://www.americanexpress.com/es/content/merchant/get-support/contact-us.html",
			"flink2-text" : "Declaraci&oacute;n de privacidad",
			"flink2-link" : "https://www.americanexpress.com/es/content/data-protection.html",
			"flink3-text" : "Actualizar email",
			"flink3-link" : "https://www209.americanexpress.com/merchant/dashboard/es_ES/login?TARGET=https%3A%2F%2Fwww209.americanexpress.com%2Fmerchant%2Fprofile%2Fes_ES%2Fsecure%2Fhome#page=loadContactInfo%20",
			"terms-header" : "Informaci&oacute;n importante:",
			"terms-items" : [
				{
					"marker" : "*",
					"copy" : "Fuente: Encuesta a trav&eacute;s de un panel en Internet encargada por American Express y llevada a cabo entre enero 2016 y marzo 2016 y basada en compras realizadas en los 6 meses anteriores a la encuesta. Definici&oacute;n de Titulares American Express: Aquellos encuestados que declararon poseer una Tarjeta American Express y que utilizaron dicha Tarjeta para realizar compras durante los 6 meses anteriores. Definici&oacute;n de titulares de otras tarjetas: Aquellos encuestados que declararon no poseer ning&uacute;n tipo de Tarjeta American Express y que utilizaron tarjetas Visa, MasterCard o cualquier otra tarjeta de cr&eacute;dito para realizar compras durante los 6 meses anteriores."
				},
				{
					"marker" : "&dagger;",
					"copy" : "Estamos a su disposici&oacute;n para ayudarle en cualquier momento, por lo que si tiene cualquier pregunta o necesita m&aacute;s informaci&oacute;n, por favor llame a nuestro Servicio de Atenci&oacute;n a Establecimientos al 902&nbsp;100&nbsp;956, de 9:30 a 20:00h de lunes a viernes."
				},
				{
					"marker" : "",
					"copy" : "Exenci&oacute;n de responsabilidad: Las marcas comerciales aqu&iacute; utilizadas son propiedad de sus respectivos propietarios."
				},
				{
					"marker" : "",
					"copy" : "American Express Payment Services Limited, Sucursal en Espa&ntilde;a. NIF W8261677B. American Express Payment Services Limited se encuentra autorizada por la Financial Conduct Authority de conformidad con el Reglamento de Servicios de Pago 2009 (Payment Services Regulations 2009), del Reino Unido (n&uacute;mero de referencia 484347) para la prestaci&oacute;n de servicios de pago e inscrita en el registro del Banco de Espa&ntilde;a bajo el n&uacute;mero 6.804.<br><br><a href=\"http://www.americanexpress.es\" target=\"_blank\" style=\"color:#4d4f53;text-decoration:none;\">www.americanexpress.es</a>"
				},
				{
					"marker" : "",
					"copy" : "Copyright &copy; 2016. American Express Company. Todos los derechos reservados."
				},
				{
				  "marker" : "",
				  "copy" : "Por favor no responda a este email, ha sido enviado desde una direcci&oacute;n no atendida. Este email est&aacute; dirigido a clientes de American Express y fue enviado a %%EMAIL%%. Si recibi&oacute; este mensaje en una direcci&oacute;n diferente, el mensaje fue reenviado."
				}
			]
		}
	]
}
