{
	"template" : "welcome-non-smp.html",
	"language" : "nl",
	"output" : "welcome-non-smp-nl.html",
	"languagecode" : "nl",
	"subject" : "Fijn dat u &lsquo;ja&rsquo; heeft gezegd tegen American Express&reg;",
	"browserview" : {
		"text" : "Klik [[link]] om deze email in uw browser te lezen.",
		"links" : [
			{
				"linktext" : "hier",
				"link" : "http://ebm.email.americanexpress.com/c/tag/%%t%%/doc.html?t_sparams=%%t_sparams%%",
				"colour" : "ffffff"
			}
		]
	},
	"amexlink" : "https://merchant-channel.americanexpress.com/merchant/nl_NL/home",
	"amexalt" : "American Express&reg;",
	"merchant" : "Aansluitingsnummer:",
	"merchantnumber" : "&lt;XXXXXX&gt;",
	"modules" : [
		{
			"type" : "title",
			"text" : "Fijn dat u &lsquo;ja&rsquo; heeft gezegd tegen American <font style=\"white-space:nowrap;\">Express<sup class=\"supx1\">&reg;</sup></font>"
		},
		{
			"type" : "hero",
			"alt" : "Fijn dat u &lsquo;ja&rsquo; heeft gezegd tegen American Express&reg;",
			"img" : "img/nl/yes6.png"
		},
		{
			"type" : "intro",
			"text" : "Geachte relatie,<br><br>Welkom bij American Express. Nu u onze kaarten accepteert en deel uitmaakt van het American Express netwerk, profiteert u van onze voordelen en promotiematerialen waarmee u uw bedrijf kan laten groeien en uw account dagelijks kunt&nbsp;beheren.",
			"bottommargin" : "yes"
		},
		{
			"type" : "signature",
			"text" : "Werner Decker,<br>Senior Vice President, <br>Head of Global Merchant Services Europe"
		},
		{
			"type" : "submodules",
			"items" : [
				{
					"type" : "gettingstarted",
					"alt" : "Handleiding &lsquo;Aan de slag&rsquo;",
					"header" : "Handleiding &lsquo;Aan de slag&rsquo;",
					"copy" : "Download onze [[link]] en ontdek wat voor u de voordelen zijn van het accepteren van American Express en wat u moet doen om onze kaarten te kunnen&nbsp;accepteren.",
					"links" : [
						{
							"linktext" : "handleiding &lsquo;Aan de slag&rsquo;",
							"link" : "https://www.americanexpress.com/nl/content/merchant/pdf/useful-information-and-downloads/getting-started.pdf",
							"colour" : "000"
						}
					]
				},
				{
					"type" : "threesteps",
					"alt" : "Hier volgt alvast een samenvatting van de vier eenvoudige stappen die daarvoor nodig zijn",
					"header" : "Hier volgt alvast een samenvatting van de vier eenvoudige stappen die daarvoor nodig&nbsp;zijn",
					"items" : [
						{
							"number" : "1.",
							"text" : "org ervoor dat uw betaalautomaat klaar is voor activatie door te controleren of American Express op uw dagelijkse overzicht verschijnt. Mocht American Express niet getoond worden, neem dan contact op met uw betaalautomaatleverancier om u te helpen deze correct in te stellen. U vindt [[link]] meer informatie over het testen van uw&nbsp;betaalautomaat.",
							"links" : [
								{
									"linktext" : "hier",
									"link" : "https://www209.americanexpress.com/merchant/dashboard/nl_NL/render/getting-started?section=getstarted",
									"colour" : "000000"
								}
							]
						},
						{
							"number" : "",
							"text" : "Als u een online kaart accepterend bedrijf bent, kan uw software automatisch bijgewerkt zijn, anders moet u een paar simpele stappen uitvoeren om ervoor te zorgen dat u American Express kaarten kunt accepteren. Neem eenvoudig contact op met uw aanbieder of volg de instructies die u heeft ontvangen om ervoor te zorgen dat u gelijk aan de slag&nbsp;kunt.",
							"links" : []
						},
						{
							"number" : "2.",
							"text" : "innenkort ontvangt u uw raamstickers zodat kaarthouders kunnen zien dat u American Express accepteert. U kunt [[link]] de digitale versie van het logo voor uw website&nbsp;downloaden.",
							"links" : [
								{
									"linktext" : "hier",
									"link" : "https://merchant-supplies.americanexpress.com/?locale=nl_NL#/",
									"colour" : "000000"
								}
							]
						},
						{
							"number" : "3.",
							"text" : "Registreer uw account [[link]] en controleer of al uw accountgegevens juist zijn. Neem zo snel mogelijk contact met ons op als uw gegevens niet blijken te kloppen. Hier heeft u ook toegang tot uw overzichten, kunt u dagelijkse transacties en betalingen inzien, alerts en meldingen ontvangen en eventuele geschillen bekijken en&nbsp;oplossen.",
							"links" : [
								{
									"linktext" : "online",
									"link" : "https://www.americanexpress.com/nl/content/merchant/online-merchant-services.html",
									"colour" : "000000"
								}
							]
						}
					]
				},
				{
					"type" : "didyouknow",
					"alt" : "Wist u dat?",
					"header" : "Wist u dat?",
					"copy" : "Nederlandse American Express kaarthouders gemiddeld &euro;1.418 spenderen aan creditcardbetalingen in een doorsnee maand, vergeleken met &euro;476 gemiddeld door Nederlandse niet-kaarthouders.* Dus door &lsquo;ja&rsquo; te zeggen, biedt u uw klanten niet alleen de flexibiliteit om te betalen op de manier zoals zij dat graag willen, maar het kan ook de omzet van uw bedrijf&nbsp;vergroten."
				}
			]
		},
		{
			"type" : "anyquestions",
			"header" : "Nog vragen?",
			"text" : "Ga voor meer informatie naar onzewebsite of bel ons op <a href=\"tel:0205048333\" style=\"color:#88d3e1;text-decoration:none;white-space:nowrap;\">020-504 8333</a>**.",
			"label" : "Ga naar de site",
			"link" : "https://merchant-channel.americanexpress.com/merchant/nl_NL/home"
		},
		{
			"type" : "footer",
			"flink1-text" : "Klantenservice",
			"flink1-link" : "https://merchant-channel.americanexpress.com/nl_NL/contact-us",
			"flink2-text" : "Privacy Statement",
			"flink2-link" : "https://www.americanexpress.com/nl/content/privacy-statement.html?inav=nl_legalfooter_privacy",
			"flink3-text" : "Update uw gegevens",
			"flink3-link" : "https://merchant-channel.americanexpress.com/nl_NL/contact-us",
			"terms-header" : "",
			"terms-items" : [
				{
					"marker" : "*",
					"copy" : "Bron: Online onderzoek uitgevoerd in opdracht van American Express in januari 2016-maart 2016, gebaseerd op de aankopen van de 6 maanden voorafgaand aan het onderzoek. Definitie van American <font style=\"white-space:nowrap;\">Express<sup class=\"supx1\">&reg;</sup></font>-kaarthouders: ondervraagden die aangeven een American Express-kaart te hebben die kaart te hebben gebruikt voor aankopen in de voorafgaande 6 maanden. Definitie van niet-kaarthouders: ondervraagden die hebben aangegeven dat ze geen American Express-kaart hebben en dat ze een Visacard, Mastercard of andere creditcard hebben gebruikt voor het doen van aankopen in de voorafgaande 6&nbsp;maanden."
				},
				{
					"marker" : "",
					"copy" : "Disclaimer: de handelsmerken die hier gebruikt worden, zijn het eigendom van hun respectievelijke&nbsp;eigenaren."
				},
				{
					"marker" : "",
					"copy" : "American Express Payment Services Limited, handelend middels haar Nederlandse branche, met adres Hoogoorddreef 15, 1101 BA Amsterdam, Nederland, geregistreerd bij het Handelsregister van de Kamer van Koophandel onder nummer 50459945. De Financial Conduct Authority heeft American Express Payment Services Limited de bevoegdheid gegeven om in het Verenigd Koninkrijk betaaldiensten te verlenen in overeenstemming met de Payment Services Regulations 2009 (referentie nummer&nbsp;484347)."
				},
				{
					"marker" : "**",
					"copy" : "Kaartaccepterende Bedrijven 020-504 8333 (optie 2), Maandag tot en met vrijdag van 9.00 uur tot 17.00 uur. Kies optie 2, voor al uw vragen over betalingen, problemen met uw betaalautomaat, of het toevoegen van nieuwe locaties aan uw bedrijf. Kies optie 3 voor hulp met onze website. Bel voor autorisaties of in geval van fraude met 020-504 8666 (optie&nbsp;1)."
				},
				{
					"marker" : "",
					"copy" : "Houd de gegevens van uw account bij de hand en houd rekening met het feit dat u een aantal veiligheidsvragen wordt gesteld wanneer u contact heeft met een van onze medewerkers."
				}
			]
		}
	]
}
